(kicad_symbol_lib (version 20220914) (generator kicad_symbol_editor)
  (symbol "0850BM14E0016" (in_bom yes) (on_board yes)
    (property "Reference" "FL" (at -6.35 -6.35 0)
      (effects (font (size 1.27 1.27)))
    )
    (property "Value" "0850BM14E0016" (at 0 6.35 0)
      (effects (font (size 1.27 1.27)))
    )
    (property "Footprint" "RF_Converter:Balun_Johanson_1.6x0.8mm" (at 0 -17.78 0)
      (effects (font (size 1.27 1.27)) hide)
    )
    (property "Datasheet" "https://www.johansontechnology.com/datasheets/0850BM14E0016/0850BM14E0016.pdf" (at -24.13 15.24 0)
      (effects (font (size 1.27 1.27)) hide)
    )
    (property "ki_keywords" "Sub-GHz Balun" (at 0 0 0)
      (effects (font (size 1.27 1.27)) hide)
    )
    (property "ki_description" "Sub-GHz Impedance Matched Balun + LPF integrated Passive" (at 0 0 0)
      (effects (font (size 1.27 1.27)) hide)
    )
    (property "ki_fp_filters" "Balun*Johanson*1.6x0.8mm*" (at 0 0 0)
      (effects (font (size 1.27 1.27)) hide)
    )
    (symbol "0850BM14E0016_0_0"
      (pin passive line (at 10.16 2.54 180) (length 2.54)
        (name "UBP" (effects (font (size 1.27 1.27))))
        (number "1" (effects (font (size 1.27 1.27))))
      )
      (pin passive line (at -10.16 -2.54 0) (length 2.54)
        (name "RX/TX" (effects (font (size 1.27 1.27))))
        (number "2" (effects (font (size 1.27 1.27))))
      )
      (pin passive line (at -10.16 0 0) (length 2.54)
        (name "RF_N" (effects (font (size 1.27 1.27))))
        (number "3" (effects (font (size 1.27 1.27))))
      )
      (pin passive line (at -10.16 2.54 0) (length 2.54)
        (name "RF_P" (effects (font (size 1.27 1.27))))
        (number "4" (effects (font (size 1.27 1.27))))
      )
      (pin power_in line (at 2.54 -7.62 90) (length 2.54)
        (name "GND" (effects (font (size 1.27 1.27))))
        (number "5" (effects (font (size 1.27 1.27))))
      )
      (pin passive line (at 2.54 -7.62 90) (length 2.54) hide
        (name "GND" (effects (font (size 1.27 1.27))))
        (number "6" (effects (font (size 1.27 1.27))))
      )
    )
    (symbol "0850BM14E0016_0_1"
      (rectangle (start -7.62 5.08) (end 7.62 -5.08)
        (stroke (width 0.254) (type default))
        (fill (type background))
      )
    )
  )
  (symbol "0900FM15K0039" (in_bom yes) (on_board yes)
    (property "Reference" "FL" (at -6.35 -6.35 0)
      (effects (font (size 1.27 1.27)))
    )
    (property "Value" "0900FM15K0039" (at 0 6.35 0)
      (effects (font (size 1.27 1.27)))
    )
    (property "Footprint" "RF_Converter:Balun_Johanson_0900FM15K0039" (at 0 -9.525 0)
      (effects (font (size 1.27 1.27)) hide)
    )
    (property "Datasheet" "https://www.johansontechnology.com/datasheets/0900FM15K0039/0900FM15K0039.pdf" (at 0.635 -11.43 0)
      (effects (font (size 1.27 1.27)) hide)
    )
    (property "ki_keywords" "Sub-GHz filter" (at 0 0 0)
      (effects (font (size 1.27 1.27)) hide)
    )
    (property "ki_description" "868MHz/915MHz Sub-GHz Impedance Matched Filter integrated passive for Semtech SX1261, SX1262, LLCC68" (at 0 0 0)
      (effects (font (size 1.27 1.27)) hide)
    )
    (property "ki_fp_filters" "Balun*Johanson*0900FM15K0039*" (at 0 0 0)
      (effects (font (size 1.27 1.27)) hide)
    )
    (symbol "0900FM15K0039_0_0"
      (pin passive line (at -10.16 2.54 0) (length 2.54)
        (name "RFO" (effects (font (size 1.27 1.27))))
        (number "1" (effects (font (size 1.27 1.27))))
      )
      (pin passive line (at 0 -7.62 90) (length 2.54) hide
        (name "GND" (effects (font (size 1.27 1.27))))
        (number "10" (effects (font (size 1.27 1.27))))
      )
      (pin power_in line (at 0 -7.62 90) (length 2.54)
        (name "GND" (effects (font (size 1.27 1.27))))
        (number "2" (effects (font (size 1.27 1.27))))
      )
      (pin passive line (at -10.16 0 0) (length 2.54)
        (name "RFI_N" (effects (font (size 1.27 1.27))))
        (number "3" (effects (font (size 1.27 1.27))))
      )
      (pin passive line (at -10.16 -2.54 0) (length 2.54)
        (name "RFI_P" (effects (font (size 1.27 1.27))))
        (number "4" (effects (font (size 1.27 1.27))))
      )
      (pin passive line (at 0 -7.62 90) (length 2.54) hide
        (name "GND" (effects (font (size 1.27 1.27))))
        (number "5" (effects (font (size 1.27 1.27))))
      )
      (pin passive line (at 10.16 0 180) (length 2.54)
        (name "SW_RFI" (effects (font (size 1.27 1.27))))
        (number "6" (effects (font (size 1.27 1.27))))
      )
      (pin passive line (at 0 -7.62 90) (length 2.54) hide
        (name "GND" (effects (font (size 1.27 1.27))))
        (number "7" (effects (font (size 1.27 1.27))))
      )
      (pin passive line (at 10.16 2.54 180) (length 2.54)
        (name "SW_RFO" (effects (font (size 1.27 1.27))))
        (number "8" (effects (font (size 1.27 1.27))))
      )
      (pin passive line (at 0 -7.62 90) (length 2.54) hide
        (name "GND" (effects (font (size 1.27 1.27))))
        (number "9" (effects (font (size 1.27 1.27))))
      )
    )
    (symbol "0900FM15K0039_0_1"
      (rectangle (start -7.62 5.08) (end 7.62 -5.08)
        (stroke (width 0.254) (type default))
        (fill (type background))
      )
    )
  )
  (symbol "1FP45-0R" (in_bom yes) (on_board yes)
    (property "Reference" "FL" (at 0 7.62 0)
      (effects (font (size 1.27 1.27)))
    )
    (property "Value" "1FP45-0R" (at 0 5.08 0)
      (effects (font (size 1.27 1.27)))
    )
    (property "Footprint" "Filter:Filter_FILTERCON_1FPxx" (at 0 0 0)
      (effects (font (size 1.27 1.27)) hide)
    )
    (property "Datasheet" "https://filtercon.com.pl/wp-content/uploads/2019/07/Karta-katalogowa-FP-12-1.pdf" (at 0 0 0)
      (effects (font (size 1.27 1.27)) hide)
    )
    (property "ki_keywords" "EMI" (at 0 0 0)
      (effects (font (size 1.27 1.27)) hide)
    )
    (property "ki_description" "0.5A, 250VAC, 50/60Hz line filter" (at 0 0 0)
      (effects (font (size 1.27 1.27)) hide)
    )
    (property "ki_fp_filters" "Filter*FILTERCON*1FPxx*" (at 0 0 0)
      (effects (font (size 1.27 1.27)) hide)
    )
    (symbol "1FP45-0R_1_1"
      (rectangle (start -10.16 3.81) (end 10.16 -3.81)
        (stroke (width 0.254) (type default))
        (fill (type background))
      )
      (rectangle (start -4.826 -0.254) (end -2.794 -0.508)
        (stroke (width 0) (type default))
        (fill (type outline))
      )
      (rectangle (start -4.826 0.254) (end -2.794 0.508)
        (stroke (width 0) (type default))
        (fill (type outline))
      )
      (arc (start -0.762 -2.54) (mid -1.143 -2.1606) (end -1.524 -2.54)
        (stroke (width 0) (type default))
        (fill (type none))
      )
      (arc (start -0.762 2.54) (mid -1.143 2.9194) (end -1.524 2.54)
        (stroke (width 0) (type default))
        (fill (type none))
      )
      (arc (start 0 -2.54) (mid -0.381 -2.1606) (end -0.762 -2.54)
        (stroke (width 0) (type default))
        (fill (type none))
      )
      (polyline
        (pts
          (xy -6.858 -1.27)
          (xy -6.858 1.27)
        )
        (stroke (width 0) (type default))
        (fill (type none))
      )
      (polyline
        (pts
          (xy -6.858 -1.27)
          (xy -5.842 -1.27)
        )
        (stroke (width 0) (type default))
        (fill (type none))
      )
      (polyline
        (pts
          (xy -6.858 1.27)
          (xy -5.842 1.27)
        )
        (stroke (width 0) (type default))
        (fill (type none))
      )
      (polyline
        (pts
          (xy -6.35 -1.27)
          (xy -6.35 -2.54)
        )
        (stroke (width 0) (type default))
        (fill (type none))
      )
      (polyline
        (pts
          (xy -6.35 1.27)
          (xy -6.35 2.54)
        )
        (stroke (width 0) (type default))
        (fill (type none))
      )
      (polyline
        (pts
          (xy -5.842 -1.27)
          (xy -5.842 1.27)
        )
        (stroke (width 0) (type default))
        (fill (type none))
      )
      (polyline
        (pts
          (xy -3.81 -0.508)
          (xy -3.81 -2.54)
        )
        (stroke (width 0) (type default))
        (fill (type none))
      )
      (polyline
        (pts
          (xy -3.81 0.508)
          (xy -3.81 2.54)
        )
        (stroke (width 0) (type default))
        (fill (type none))
      )
      (polyline
        (pts
          (xy -1.524 -2.54)
          (xy -7.62 -2.54)
        )
        (stroke (width 0) (type default))
        (fill (type none))
      )
      (polyline
        (pts
          (xy -1.524 2.54)
          (xy -7.62 2.54)
        )
        (stroke (width 0) (type default))
        (fill (type none))
      )
      (polyline
        (pts
          (xy 1.524 -2.54)
          (xy 7.112 -2.54)
        )
        (stroke (width 0) (type default))
        (fill (type none))
      )
      (polyline
        (pts
          (xy 3.81 -0.508)
          (xy 3.81 -2.54)
        )
        (stroke (width 0) (type default))
        (fill (type none))
      )
      (polyline
        (pts
          (xy 3.81 0.508)
          (xy 3.81 2.54)
        )
        (stroke (width 0) (type default))
        (fill (type none))
      )
      (polyline
        (pts
          (xy 7.112 2.54)
          (xy 1.524 2.54)
        )
        (stroke (width 0) (type default))
        (fill (type none))
      )
      (circle (center 0 0) (radius 1.8034)
        (stroke (width 0) (type default))
        (fill (type none))
      )
      (arc (start 0 2.54) (mid -0.381 2.9194) (end -0.762 2.54)
        (stroke (width 0) (type default))
        (fill (type none))
      )
      (arc (start 0.762 -2.54) (mid 0.381 -2.1606) (end 0 -2.54)
        (stroke (width 0) (type default))
        (fill (type none))
      )
      (arc (start 0.762 2.54) (mid 0.381 2.9194) (end 0 2.54)
        (stroke (width 0) (type default))
        (fill (type none))
      )
      (arc (start 1.524 -2.54) (mid 1.143 -2.1606) (end 0.762 -2.54)
        (stroke (width 0) (type default))
        (fill (type none))
      )
      (arc (start 1.524 2.54) (mid 1.143 2.9194) (end 0.762 2.54)
        (stroke (width 0) (type default))
        (fill (type none))
      )
      (rectangle (start 2.794 -0.254) (end 4.826 -0.508)
        (stroke (width 0) (type default))
        (fill (type outline))
      )
      (rectangle (start 2.794 0.254) (end 4.826 0.508)
        (stroke (width 0) (type default))
        (fill (type outline))
      )
      (pin passive line (at -12.7 2.54 0) (length 2.54)
        (name "P" (effects (font (size 1.27 1.27))))
        (number "1" (effects (font (size 1.27 1.27))))
      )
      (pin passive line (at 12.7 2.54 180) (length 2.54)
        (name "P'" (effects (font (size 1.27 1.27))))
        (number "2" (effects (font (size 1.27 1.27))))
      )
      (pin passive line (at -12.7 -2.54 0) (length 2.54)
        (name "N" (effects (font (size 1.27 1.27))))
        (number "3" (effects (font (size 1.27 1.27))))
      )
      (pin passive line (at 12.7 -2.54 180) (length 2.54)
        (name "N'" (effects (font (size 1.27 1.27))))
        (number "4" (effects (font (size 1.27 1.27))))
      )
    )
  )
  (symbol "1FP41-4R" (extends "1FP45-0R")
    (property "Reference" "FL" (at 0 7.62 0)
      (effects (font (size 1.27 1.27)))
    )
    (property "Value" "1FP41-4R" (at 0 5.08 0)
      (effects (font (size 1.27 1.27)))
    )
    (property "Footprint" "Filter:Filter_FILTERCON_1FPxx" (at 0 0 0)
      (effects (font (size 1.27 1.27)) hide)
    )
    (property "Datasheet" "https://filtercon.com.pl/wp-content/uploads/2019/07/Karta-katalogowa-FP-12-1.pdf" (at 0 0 0)
      (effects (font (size 1.27 1.27)) hide)
    )
    (property "ki_keywords" "EMI" (at 0 0 0)
      (effects (font (size 1.27 1.27)) hide)
    )
    (property "ki_description" "4A, 250VAC, 50/60Hz line filter" (at 0 0 0)
      (effects (font (size 1.27 1.27)) hide)
    )
    (property "ki_fp_filters" "Filter*FILTERCON*1FPxx*" (at 0 0 0)
      (effects (font (size 1.27 1.27)) hide)
    )
  )
  (symbol "1FP42-3R" (extends "1FP45-0R")
    (property "Reference" "FL" (at 0 7.62 0)
      (effects (font (size 1.27 1.27)))
    )
    (property "Value" "1FP42-3R" (at 0 5.08 0)
      (effects (font (size 1.27 1.27)))
    )
    (property "Footprint" "Filter:Filter_FILTERCON_1FPxx" (at 0 0 0)
      (effects (font (size 1.27 1.27)) hide)
    )
    (property "Datasheet" "https://filtercon.com.pl/wp-content/uploads/2019/07/Karta-katalogowa-FP-12-1.pdf" (at 0 0 0)
      (effects (font (size 1.27 1.27)) hide)
    )
    (property "ki_keywords" "EMI" (at 0 0 0)
      (effects (font (size 1.27 1.27)) hide)
    )
    (property "ki_description" "3A, 250VAC, 50/60Hz line filter" (at 0 0 0)
      (effects (font (size 1.27 1.27)) hide)
    )
    (property "ki_fp_filters" "Filter*FILTERCON*1FPxx*" (at 0 0 0)
      (effects (font (size 1.27 1.27)) hide)
    )
  )
  (symbol "1FP44-2R" (extends "1FP45-0R")
    (property "Reference" "FL" (at 0 7.62 0)
      (effects (font (size 1.27 1.27)))
    )
    (property "Value" "1FP44-2R" (at 0 5.08 0)
      (effects (font (size 1.27 1.27)))
    )
    (property "Footprint" "Filter:Filter_FILTERCON_1FPxx" (at 0 0 0)
      (effects (font (size 1.27 1.27)) hide)
    )
    (property "Datasheet" "https://filtercon.com.pl/wp-content/uploads/2019/07/Karta-katalogowa-FP-12-1.pdf" (at 0 0 0)
      (effects (font (size 1.27 1.27)) hide)
    )
    (property "ki_keywords" "EMI" (at 0 0 0)
      (effects (font (size 1.27 1.27)) hide)
    )
    (property "ki_description" "2A, 250VAC, 50/60Hz line filter" (at 0 0 0)
      (effects (font (size 1.27 1.27)) hide)
    )
    (property "ki_fp_filters" "Filter*FILTERCON*1FPxx*" (at 0 0 0)
      (effects (font (size 1.27 1.27)) hide)
    )
  )
  (symbol "1FP45-1R" (extends "1FP45-0R")
    (property "Reference" "FL" (at 0 7.62 0)
      (effects (font (size 1.27 1.27)))
    )
    (property "Value" "1FP45-1R" (at 0 5.08 0)
      (effects (font (size 1.27 1.27)))
    )
    (property "Footprint" "Filter:Filter_FILTERCON_1FPxx" (at 0 0 0)
      (effects (font (size 1.27 1.27)) hide)
    )
    (property "Datasheet" "https://filtercon.com.pl/wp-content/uploads/2019/07/Karta-katalogowa-FP-12-1.pdf" (at 0 0 0)
      (effects (font (size 1.27 1.27)) hide)
    )
    (property "ki_keywords" "EMI" (at 0 0 0)
      (effects (font (size 1.27 1.27)) hide)
    )
    (property "ki_description" "1A, 250VAC, 50/60Hz line filter" (at 0 0 0)
      (effects (font (size 1.27 1.27)) hide)
    )
    (property "ki_fp_filters" "Filter*FILTERCON*1FPxx*" (at 0 0 0)
      (effects (font (size 1.27 1.27)) hide)
    )
  )
  (symbol "1FP61-4R" (extends "1FP45-0R")
    (property "Reference" "FL" (at 0 7.62 0)
      (effects (font (size 1.27 1.27)))
    )
    (property "Value" "1FP61-4R" (at 0 5.08 0)
      (effects (font (size 1.27 1.27)))
    )
    (property "Footprint" "Filter:Filter_FILTERCON_1FPxx" (at 0 0 0)
      (effects (font (size 1.27 1.27)) hide)
    )
    (property "Datasheet" "https://filtercon.com.pl/wp-content/uploads/2019/07/Karta-katalogowa-FP-12-1.pdf" (at 0 0 0)
      (effects (font (size 1.27 1.27)) hide)
    )
    (property "ki_keywords" "EMI" (at 0 0 0)
      (effects (font (size 1.27 1.27)) hide)
    )
    (property "ki_description" "4A, 250VAC, 50/60Hz line filter" (at 0 0 0)
      (effects (font (size 1.27 1.27)) hide)
    )
    (property "ki_fp_filters" "Filter*FILTERCON*1FPxx*" (at 0 0 0)
      (effects (font (size 1.27 1.27)) hide)
    )
  )
  (symbol "1FP62-3R" (extends "1FP45-0R")
    (property "Reference" "FL" (at 0 7.62 0)
      (effects (font (size 1.27 1.27)))
    )
    (property "Value" "1FP62-3R" (at 0 5.08 0)
      (effects (font (size 1.27 1.27)))
    )
    (property "Footprint" "Filter:Filter_FILTERCON_1FPxx" (at 0 0 0)
      (effects (font (size 1.27 1.27)) hide)
    )
    (property "Datasheet" "https://filtercon.com.pl/wp-content/uploads/2019/07/Karta-katalogowa-FP-12-1.pdf" (at 0 0 0)
      (effects (font (size 1.27 1.27)) hide)
    )
    (property "ki_keywords" "EMI" (at 0 0 0)
      (effects (font (size 1.27 1.27)) hide)
    )
    (property "ki_description" "3A, 250VAC, 50/60Hz line filter" (at 0 0 0)
      (effects (font (size 1.27 1.27)) hide)
    )
    (property "ki_fp_filters" "Filter*FILTERCON*1FPxx*" (at 0 0 0)
      (effects (font (size 1.27 1.27)) hide)
    )
  )
  (symbol "1FP64-2R" (extends "1FP45-0R")
    (property "Reference" "FL" (at 0 7.62 0)
      (effects (font (size 1.27 1.27)))
    )
    (property "Value" "1FP64-2R" (at 0 5.08 0)
      (effects (font (size 1.27 1.27)))
    )
    (property "Footprint" "Filter:Filter_FILTERCON_1FPxx" (at 0 0 0)
      (effects (font (size 1.27 1.27)) hide)
    )
    (property "Datasheet" "https://filtercon.com.pl/wp-content/uploads/2019/07/Karta-katalogowa-FP-12-1.pdf" (at 0 0 0)
      (effects (font (size 1.27 1.27)) hide)
    )
    (property "ki_keywords" "EMI" (at 0 0 0)
      (effects (font (size 1.27 1.27)) hide)
    )
    (property "ki_description" "2A, 250VAC, 50/60Hz line filter" (at 0 0 0)
      (effects (font (size 1.27 1.27)) hide)
    )
    (property "ki_fp_filters" "Filter*FILTERCON*1FPxx*" (at 0 0 0)
      (effects (font (size 1.27 1.27)) hide)
    )
  )
  (symbol "1FP65-0R" (extends "1FP45-0R")
    (property "Reference" "FL" (at 0 7.62 0)
      (effects (font (size 1.27 1.27)))
    )
    (property "Value" "1FP65-0R" (at 0 5.08 0)
      (effects (font (size 1.27 1.27)))
    )
    (property "Footprint" "Filter:Filter_FILTERCON_1FPxx" (at 0 0 0)
      (effects (font (size 1.27 1.27)) hide)
    )
    (property "Datasheet" "https://filtercon.com.pl/wp-content/uploads/2019/07/Karta-katalogowa-FP-12-1.pdf" (at 0 0 0)
      (effects (font (size 1.27 1.27)) hide)
    )
    (property "ki_keywords" "EMI" (at 0 0 0)
      (effects (font (size 1.27 1.27)) hide)
    )
    (property "ki_description" "0.5A, 250VAC, 50/60Hz line filter" (at 0 0 0)
      (effects (font (size 1.27 1.27)) hide)
    )
    (property "ki_fp_filters" "Filter*FILTERCON*1FPxx*" (at 0 0 0)
      (effects (font (size 1.27 1.27)) hide)
    )
  )
  (symbol "1FP65-1R" (extends "1FP45-0R")
    (property "Reference" "FL" (at 0 7.62 0)
      (effects (font (size 1.27 1.27)))
    )
    (property "Value" "1FP65-1R" (at 0 5.08 0)
      (effects (font (size 1.27 1.27)))
    )
    (property "Footprint" "Filter:Filter_FILTERCON_1FPxx" (at 0 0 0)
      (effects (font (size 1.27 1.27)) hide)
    )
    (property "Datasheet" "https://filtercon.com.pl/wp-content/uploads/2019/07/Karta-katalogowa-FP-12-1.pdf" (at 0 0 0)
      (effects (font (size 1.27 1.27)) hide)
    )
    (property "ki_keywords" "EMI" (at 0 0 0)
      (effects (font (size 1.27 1.27)) hide)
    )
    (property "ki_description" "1A, 250VAC, 50/60Hz line filter" (at 0 0 0)
      (effects (font (size 1.27 1.27)) hide)
    )
    (property "ki_fp_filters" "Filter*FILTERCON*1FPxx*" (at 0 0 0)
      (effects (font (size 1.27 1.27)) hide)
    )
  )
  (symbol "B39162B8813P810" (pin_names (offset 1.016)) (in_bom yes) (on_board yes)
    (property "Reference" "FL" (at 2.54 -6.35 0)
      (effects (font (size 1.27 1.27)))
    )
    (property "Value" "B39162B8813P810" (at 0 6.35 0)
      (effects (font (size 1.27 1.27)))
    )
    (property "Footprint" "Filter:Filter_1109-5_1.1x0.9mm" (at 0 0 0)
      (effects (font (size 1.27 1.27)) hide)
    )
    (property "Datasheet" "https://product.tdk.com/search-template/en/documents/data_sheet/40/ds/mc/B9482.pdf" (at -1.778 0.762 0)
      (effects (font (size 1.27 1.27)) hide)
    )
    (property "ki_keywords" "SAW filter" (at 0 0 0)
      (effects (font (size 1.27 1.27)) hide)
    )
    (property "ki_description" "1582.47MHz SAW filter, SMD 1109" (at 0 0 0)
      (effects (font (size 1.27 1.27)) hide)
    )
    (property "ki_fp_filters" "Filter*1109*1.1x0.9mm*" (at 0 0 0)
      (effects (font (size 1.27 1.27)) hide)
    )
    (symbol "B39162B8813P810_0_1"
      (rectangle (start -5.08 5.08) (end 5.08 -5.08)
        (stroke (width 0.254) (type default))
        (fill (type background))
      )
      (arc (start -0.762 1.524) (mid -0.1988 2.0511) (end 0 2.794)
        (stroke (width 0) (type default))
        (fill (type none))
      )
      (polyline
        (pts
          (xy -1.524 -0.762)
          (xy -1.27 -0.762)
        )
        (stroke (width 0) (type default))
        (fill (type none))
      )
      (polyline
        (pts
          (xy 1.524 -1.27)
          (xy -1.524 -1.27)
        )
        (stroke (width 0) (type default))
        (fill (type none))
      )
      (polyline
        (pts
          (xy 1.524 -0.762)
          (xy -1.27 -0.762)
        )
        (stroke (width 0) (type default))
        (fill (type none))
      )
      (polyline
        (pts
          (xy -1.524 -1.27)
          (xy -2.032 -1.27)
          (xy -2.032 0)
          (xy 2.286 0)
        )
        (stroke (width 0) (type default))
        (fill (type none))
      )
      (polyline
        (pts
          (xy 1.524 -0.762)
          (xy 2.032 -0.762)
          (xy 2.032 -2.032)
          (xy -2.286 -2.032)
        )
        (stroke (width 0) (type default))
        (fill (type none))
      )
      (arc (start 0 2.794) (mid 0.2065 2.0558) (end 0.762 1.524)
        (stroke (width 0) (type default))
        (fill (type none))
      )
    )
    (symbol "B39162B8813P810_1_1"
      (pin passive line (at -7.62 2.54 0) (length 2.54)
        (name "~" (effects (font (size 1.27 1.27))))
        (number "1" (effects (font (size 1.27 1.27))))
      )
      (pin passive line (at -7.62 -2.54 0) (length 2.54)
        (name "~" (effects (font (size 1.27 1.27))))
        (number "2" (effects (font (size 1.27 1.27))))
      )
      (pin passive line (at 7.62 -2.54 180) (length 2.54)
        (name "~" (effects (font (size 1.27 1.27))))
        (number "3" (effects (font (size 1.27 1.27))))
      )
      (pin passive line (at 7.62 2.54 180) (length 2.54)
        (name "~" (effects (font (size 1.27 1.27))))
        (number "4" (effects (font (size 1.27 1.27))))
      )
      (pin passive line (at -7.62 -2.54 0) (length 2.54) hide
        (name "~" (effects (font (size 1.27 1.27))))
        (number "5" (effects (font (size 1.27 1.27))))
      )
    )
  )
  (symbol "SAFFB1G58KA0F0A" (extends "B39162B8813P810")
    (property "Reference" "FL" (at 2.54 -6.35 0)
      (effects (font (size 1.27 1.27)))
    )
    (property "Value" "SAFFB1G58KA0F0A" (at 0 6.35 0)
      (effects (font (size 1.27 1.27)))
    )
    (property "Footprint" "Filter:Filter_1109-5_1.1x0.9mm" (at 0 0 0)
      (effects (font (size 1.27 1.27)) hide)
    )
    (property "Datasheet" "https://www.murata.com/~/media/webrenewal/support/library/catalog/products/filter/rf/p73e.ashx?la=en" (at -1.778 0.762 0)
      (effects (font (size 1.27 1.27)) hide)
    )
    (property "ki_keywords" "SAW filter" (at 0 0 0)
      (effects (font (size 1.27 1.27)) hide)
    )
    (property "ki_description" "Murata 1575.42/1602MHz SAW filter, SMD 1109" (at 0 0 0)
      (effects (font (size 1.27 1.27)) hide)
    )
    (property "ki_fp_filters" "Filter*1109*1.1x0.9mm*" (at 0 0 0)
      (effects (font (size 1.27 1.27)) hide)
    )
  )
  (symbol "SAFFB1G96FN0F0A" (extends "B39162B8813P810")
    (property "Reference" "FL" (at 2.54 -6.35 0)
      (effects (font (size 1.27 1.27)))
    )
    (property "Value" "SAFFB1G96FN0F0A" (at 0 6.35 0)
      (effects (font (size 1.27 1.27)))
    )
    (property "Footprint" "Filter:Filter_1109-5_1.1x0.9mm" (at 0 0 0)
      (effects (font (size 1.27 1.27)) hide)
    )
    (property "Datasheet" "https://www.murata.com/~/media/webrenewal/support/library/catalog/products/filter/rf/p73e.ashx?la=en" (at -1.778 0.762 0)
      (effects (font (size 1.27 1.27)) hide)
    )
    (property "ki_keywords" "SAW filter" (at 0 0 0)
      (effects (font (size 1.27 1.27)) hide)
    )
    (property "ki_description" "Murata 1960MHz SAW filter, SMD 1109" (at 0 0 0)
      (effects (font (size 1.27 1.27)) hide)
    )
    (property "ki_fp_filters" "Filter*1109*1.1x0.9mm*" (at 0 0 0)
      (effects (font (size 1.27 1.27)) hide)
    )
  )
  (symbol "SAFFB2G14FA0F0A" (extends "B39162B8813P810")
    (property "Reference" "FL" (at 2.54 -6.35 0)
      (effects (font (size 1.27 1.27)))
    )
    (property "Value" "SAFFB2G14FA0F0A" (at 0 6.35 0)
      (effects (font (size 1.27 1.27)))
    )
    (property "Footprint" "Filter:Filter_1109-5_1.1x0.9mm" (at 0 0 0)
      (effects (font (size 1.27 1.27)) hide)
    )
    (property "Datasheet" "https://www.murata.com/~/media/webrenewal/support/library/catalog/products/filter/rf/p73e.ashx?la=en" (at -1.778 0.762 0)
      (effects (font (size 1.27 1.27)) hide)
    )
    (property "ki_keywords" "SAW filter" (at 0 0 0)
      (effects (font (size 1.27 1.27)) hide)
    )
    (property "ki_description" "Murata 2140MHz SAW filter, SMD 1109" (at 0 0 0)
      (effects (font (size 1.27 1.27)) hide)
    )
    (property "ki_fp_filters" "Filter*1109*1.1x0.9mm*" (at 0 0 0)
      (effects (font (size 1.27 1.27)) hide)
    )
  )
  (symbol "SAFFB881MFL0F0A" (extends "B39162B8813P810")
    (property "Reference" "FL" (at 2.54 -6.35 0)
      (effects (font (size 1.27 1.27)))
    )
    (property "Value" "SAFFB881MFL0F0A" (at 0 6.35 0)
      (effects (font (size 1.27 1.27)))
    )
    (property "Footprint" "Filter:Filter_1109-5_1.1x0.9mm" (at 0 0 0)
      (effects (font (size 1.27 1.27)) hide)
    )
    (property "Datasheet" "https://www.murata.com/~/media/webrenewal/support/library/catalog/products/filter/rf/p73e.ashx?la=en" (at -1.778 0.762 0)
      (effects (font (size 1.27 1.27)) hide)
    )
    (property "ki_keywords" "SAW filter" (at 0 0 0)
      (effects (font (size 1.27 1.27)) hide)
    )
    (property "ki_description" "Murata 881.5MHz SAW filter, SMD 1109" (at 0 0 0)
      (effects (font (size 1.27 1.27)) hide)
    )
    (property "ki_fp_filters" "Filter*1109*1.1x0.9mm*" (at 0 0 0)
      (effects (font (size 1.27 1.27)) hide)
    )
  )
  (symbol "SAFFB942MFM0F0A" (extends "B39162B8813P810")
    (property "Reference" "FL" (at 2.54 -6.35 0)
      (effects (font (size 1.27 1.27)))
    )
    (property "Value" "SAFFB942MFM0F0A" (at 0 6.35 0)
      (effects (font (size 1.27 1.27)))
    )
    (property "Footprint" "Filter:Filter_1109-5_1.1x0.9mm" (at 0 0 0)
      (effects (font (size 1.27 1.27)) hide)
    )
    (property "Datasheet" "https://www.murata.com/~/media/webrenewal/support/library/catalog/products/filter/rf/p73e.ashx?la=en" (at -1.778 0.762 0)
      (effects (font (size 1.27 1.27)) hide)
    )
    (property "ki_keywords" "SAW filter" (at 0 0 0)
      (effects (font (size 1.27 1.27)) hide)
    )
    (property "ki_description" "Murata 942.5MHz SAW filter, SMD 1109" (at 0 0 0)
      (effects (font (size 1.27 1.27)) hide)
    )
    (property "ki_fp_filters" "Filter*1109*1.1x0.9mm*" (at 0 0 0)
      (effects (font (size 1.27 1.27)) hide)
    )
  )
  (symbol "BNX025" (in_bom yes) (on_board yes)
    (property "Reference" "FL" (at -6.35 5.08 0)
      (effects (font (size 1.27 1.27)))
    )
    (property "Value" "BNX025" (at 7.62 5.08 0)
      (effects (font (size 1.27 1.27)))
    )
    (property "Footprint" "Filter:Filter_Murata_BNX025" (at 0 -5.08 0)
      (effects (font (size 1.27 1.27)) hide)
    )
    (property "Datasheet" "https://www.murata.com/en-us/products/productdetail.aspx?cate=luNoiseSupprFilteBlockType&partno=BNX025H01%23" (at -0.635 -0.635 90)
      (effects (font (size 1.27 1.27)) hide)
    )
    (property "ki_keywords" "EMI Filter SMD Murata" (at 0 0 0)
      (effects (font (size 1.27 1.27)) hide)
    )
    (property "ki_description" "EMI Filter SMD, Murata BNX025" (at 0 0 0)
      (effects (font (size 1.27 1.27)) hide)
    )
    (property "ki_fp_filters" "Filter*Murata*BNX025*" (at 0 0 0)
      (effects (font (size 1.27 1.27)) hide)
    )
    (symbol "BNX025_0_1"
      (rectangle (start -7.62 3.81) (end 7.62 -3.81)
        (stroke (width 0) (type default))
        (fill (type background))
      )
      (arc (start -1.905 -2.54) (mid -2.413 -2.0342) (end -2.921 -2.54)
        (stroke (width 0) (type default))
        (fill (type none))
      )
      (arc (start -0.889 -2.54) (mid -1.397 -2.0342) (end -1.905 -2.54)
        (stroke (width 0) (type default))
        (fill (type none))
      )
      (rectangle (start -0.508 0.508) (end 1.524 0.762)
        (stroke (width 0) (type default))
        (fill (type outline))
      )
      (polyline
        (pts
          (xy -4.953 2.54)
          (xy -5.715 2.54)
        )
        (stroke (width 0) (type default))
        (fill (type none))
      )
      (polyline
        (pts
          (xy -3.302 -2.54)
          (xy -2.921 -2.54)
        )
        (stroke (width 0) (type default))
        (fill (type none))
      )
      (polyline
        (pts
          (xy 0.127 -2.54)
          (xy 0.508 -2.54)
        )
        (stroke (width 0) (type default))
        (fill (type none))
      )
      (polyline
        (pts
          (xy 0.381 2.54)
          (xy -1.905 2.54)
        )
        (stroke (width 0) (type default))
        (fill (type none))
      )
      (polyline
        (pts
          (xy 0.508 -2.54)
          (xy 0.508 0.508)
        )
        (stroke (width 0) (type default))
        (fill (type none))
      )
      (polyline
        (pts
          (xy 0.508 2.54)
          (xy 0.508 1.27)
        )
        (stroke (width 0) (type default))
        (fill (type none))
      )
      (polyline
        (pts
          (xy 1.143 2.54)
          (xy 0.508 2.54)
        )
        (stroke (width 0) (type default))
        (fill (type none))
      )
      (polyline
        (pts
          (xy 3.175 2.54)
          (xy 3.937 2.54)
        )
        (stroke (width 0) (type default))
        (fill (type none))
      )
      (polyline
        (pts
          (xy 3.937 -2.54)
          (xy 0.508 -2.54)
        )
        (stroke (width 0) (type default))
        (fill (type none))
      )
      (polyline
        (pts
          (xy 3.937 -2.54)
          (xy 3.937 0.508)
        )
        (stroke (width 0) (type default))
        (fill (type none))
      )
      (polyline
        (pts
          (xy 3.937 -2.54)
          (xy 4.445 -2.54)
        )
        (stroke (width 0) (type default))
        (fill (type none))
      )
      (polyline
        (pts
          (xy 3.937 2.54)
          (xy 3.937 1.27)
        )
        (stroke (width 0) (type default))
        (fill (type none))
      )
      (polyline
        (pts
          (xy 3.937 2.54)
          (xy 4.445 2.54)
        )
        (stroke (width 0) (type default))
        (fill (type none))
      )
      (arc (start 0.127 -2.54) (mid -0.381 -2.0342) (end -0.889 -2.54)
        (stroke (width 0) (type default))
        (fill (type none))
      )
      (circle (center 0.508 2.54) (radius 0.254)
        (stroke (width 0) (type default))
        (fill (type outline))
      )
      (rectangle (start 1.524 1.143) (end -0.508 1.397)
        (stroke (width 0) (type default))
        (fill (type outline))
      )
      (arc (start 2.159 2.54) (mid 1.651 3.0458) (end 1.143 2.54)
        (stroke (width 0) (type default))
        (fill (type none))
      )
      (arc (start 3.175 2.54) (mid 2.667 3.0458) (end 2.159 2.54)
        (stroke (width 0) (type default))
        (fill (type none))
      )
    )
    (symbol "BNX025_1_1"
      (arc (start -3.937 2.54) (mid -4.445 3.0458) (end -4.953 2.54)
        (stroke (width 0) (type default))
        (fill (type none))
      )
      (arc (start -2.921 2.54) (mid -3.429 3.0458) (end -3.937 2.54)
        (stroke (width 0) (type default))
        (fill (type none))
      )
      (arc (start -1.905 2.54) (mid -2.413 3.0458) (end -2.921 2.54)
        (stroke (width 0) (type default))
        (fill (type none))
      )
      (circle (center 0.508 -2.54) (radius 0.254)
        (stroke (width 0) (type default))
        (fill (type outline))
      )
      (rectangle (start 2.921 0.508) (end 4.953 0.762)
        (stroke (width 0) (type default))
        (fill (type outline))
      )
      (circle (center 3.937 -2.54) (radius 0.254)
        (stroke (width 0) (type default))
        (fill (type outline))
      )
      (circle (center 3.937 2.54) (radius 0.254)
        (stroke (width 0) (type default))
        (fill (type outline))
      )
      (rectangle (start 4.953 1.143) (end 2.921 1.397)
        (stroke (width 0) (type default))
        (fill (type outline))
      )
      (pin passive line (at -10.16 2.54 0) (length 2.54)
        (name "B" (effects (font (size 1.27 1.27))))
        (number "1" (effects (font (size 1.27 1.27))))
      )
      (pin passive line (at 10.16 2.54 180) (length 2.54)
        (name "CB" (effects (font (size 1.27 1.27))))
        (number "2" (effects (font (size 1.27 1.27))))
      )
      (pin passive line (at -10.16 -2.54 0) (length 2.54)
        (name "PSG" (effects (font (size 1.27 1.27))))
        (number "3" (effects (font (size 1.27 1.27))))
      )
      (pin passive line (at 10.16 -2.54 180) (length 2.54)
        (name "CG" (effects (font (size 1.27 1.27))))
        (number "4" (effects (font (size 1.27 1.27))))
      )
    )
  )
  (symbol "Choke_Coilcraft_0603USB-251" (pin_names (offset 0.254) hide) (in_bom yes) (on_board yes)
    (property "Reference" "FL" (id 0) (at 0 4.445 0)
      (effects (font (size 1.27 1.27)))
    )
    (property "Value" "Choke_Coilcraft_0603USB-251" (id 1) (at 0 -4.445 0)
      (effects (font (size 1.27 1.27)))
    )
    (property "Footprint" "Inductor_SMD:L_CommonModeChoke_Coilcraft_0603USB" (id 2) (at 0 -6.35 0)
      (effects (font (size 1.27 1.27)) hide)
    )
    (property "Datasheet" "https://www.coilcraft.com/pdfs/0603usb.pdf" (id 3) (at 0 -8.255 0)
      (effects (font (size 1.27 1.27)) hide)
    )
    (property "ki_keywords" "common-mode common mode choke signal line filter" (id 4) (at 0 0 0)
      (effects (font (size 1.27 1.27)) hide)
    )
    (property "ki_description" "Common mode choke, 500mA, 250VAC, 18nH, 77 mohm, 3.8Ghz, " (id 5) (at 0 0 0)
      (effects (font (size 1.27 1.27)) hide)
    )
    (property "ki_fp_filters" "L*CommonModeChoke*Coilcraft*0603USB*" (id 6) (at 0 0 0)
      (effects (font (size 1.27 1.27)) hide)
    )
    (symbol "Choke_Coilcraft_0603USB-251_0_1"
      (circle (center -3.048 -1.27) (radius 0.254)
        (stroke (width 0) (type default) (color 0 0 0 0))
        (fill (type outline))
      )
      (circle (center -3.048 1.524) (radius 0.254)
        (stroke (width 0) (type default) (color 0 0 0 0))
        (fill (type outline))
      )
      (arc (start -2.54 2.032) (mid -2.032 1.524) (end -1.524 2.032)
        (stroke (width 0) (type default) (color 0 0 0 0))
        (fill (type none))
      )
      (arc (start -1.524 -2.032) (mid -2.032 -1.524) (end -2.54 -2.032)
        (stroke (width 0) (type default) (color 0 0 0 0))
        (fill (type none))
      )
      (arc (start -1.524 2.032) (mid -1.016 1.524) (end -0.508 2.032)
        (stroke (width 0) (type default) (color 0 0 0 0))
        (fill (type none))
      )
      (arc (start -0.508 -2.032) (mid -1.016 -1.524) (end -1.524 -2.032)
        (stroke (width 0) (type default) (color 0 0 0 0))
        (fill (type none))
      )
      (arc (start -0.508 2.032) (mid 0 1.524) (end 0.508 2.032)
        (stroke (width 0) (type default) (color 0 0 0 0))
        (fill (type none))
      )
      (polyline
        (pts
          (xy -2.54 -2.032)
          (xy -2.54 -2.54)
        )
        (stroke (width 0) (type default) (color 0 0 0 0))
        (fill (type none))
      )
      (polyline
        (pts
          (xy -2.54 0.508)
          (xy 2.54 0.508)
        )
        (stroke (width 0) (type default) (color 0 0 0 0))
        (fill (type none))
      )
      (polyline
        (pts
          (xy -2.54 2.032)
          (xy -2.54 2.54)
        )
        (stroke (width 0) (type default) (color 0 0 0 0))
        (fill (type none))
      )
      (polyline
        (pts
          (xy 2.54 -2.032)
          (xy 2.54 -2.54)
        )
        (stroke (width 0) (type default) (color 0 0 0 0))
        (fill (type none))
      )
      (polyline
        (pts
          (xy 2.54 -0.508)
          (xy -2.54 -0.508)
        )
        (stroke (width 0) (type default) (color 0 0 0 0))
        (fill (type none))
      )
      (polyline
        (pts
          (xy 2.54 2.54)
          (xy 2.54 2.032)
        )
        (stroke (width 0) (type default) (color 0 0 0 0))
        (fill (type none))
      )
      (arc (start 0.508 -2.032) (mid 0 -1.524) (end -0.508 -2.032)
        (stroke (width 0) (type default) (color 0 0 0 0))
        (fill (type none))
      )
      (arc (start 0.508 2.032) (mid 1.016 1.524) (end 1.524 2.032)
        (stroke (width 0) (type default) (color 0 0 0 0))
        (fill (type none))
      )
      (arc (start 1.524 -2.032) (mid 1.016 -1.524) (end 0.508 -2.032)
        (stroke (width 0) (type default) (color 0 0 0 0))
        (fill (type none))
      )
      (arc (start 1.524 2.032) (mid 2.032 1.524) (end 2.54 2.032)
        (stroke (width 0) (type default) (color 0 0 0 0))
        (fill (type none))
      )
      (arc (start 2.54 -2.032) (mid 2.032 -1.524) (end 1.524 -2.032)
        (stroke (width 0) (type default) (color 0 0 0 0))
        (fill (type none))
      )
    )
    (symbol "Choke_Coilcraft_0603USB-251_1_1"
      (pin passive line (at -5.08 2.54 0) (length 2.54)
        (name "1" (effects (font (size 1.27 1.27))))
        (number "1" (effects (font (size 1.27 1.27))))
      )
      (pin passive line (at 5.08 2.54 180) (length 2.54)
        (name "2" (effects (font (size 1.27 1.27))))
        (number "2" (effects (font (size 1.27 1.27))))
      )
      (pin passive line (at 5.08 -2.54 180) (length 2.54)
        (name "3" (effects (font (size 1.27 1.27))))
        (number "3" (effects (font (size 1.27 1.27))))
      )
      (pin passive line (at -5.08 -2.54 0) (length 2.54)
        (name "4" (effects (font (size 1.27 1.27))))
        (number "4" (effects (font (size 1.27 1.27))))
      )
    )
  )
  (symbol "Choke_Coilcraft_0603USB-142" (extends "Choke_Coilcraft_0603USB-251")
    (property "Reference" "FL" (id 0) (at 0 4.445 0)
      (effects (font (size 1.27 1.27)))
    )
    (property "Value" "Choke_Coilcraft_0603USB-142" (id 1) (at 0 -4.445 0)
      (effects (font (size 1.27 1.27)))
    )
    (property "Footprint" "Inductor_SMD:L_CommonModeChoke_Coilcraft_0603USB" (id 2) (at 0 -6.35 0)
      (effects (font (size 1.27 1.27)) hide)
    )
    (property "Datasheet" "https://www.coilcraft.com/pdfs/0603usb.pdf" (id 3) (at 0 -8.255 0)
      (effects (font (size 1.27 1.27)) hide)
    )
    (property "ki_keywords" "common-mode common mode choke signal line filter" (id 4) (at 0 0 0)
      (effects (font (size 1.27 1.27)) hide)
    )
    (property "ki_description" "Common mode choke, 500mA, 250VAC, 98nH, 174mohm, 1.9Ghz, " (id 5) (at 0 0 0)
      (effects (font (size 1.27 1.27)) hide)
    )
    (property "ki_fp_filters" "L*CommonModeChoke*Coilcraft*0603USB*" (id 6) (at 0 0 0)
      (effects (font (size 1.27 1.27)) hide)
    )
  )
  (symbol "Choke_Coilcraft_0603USB-222" (extends "Choke_Coilcraft_0603USB-251")
    (property "Reference" "FL" (id 0) (at 0 4.445 0)
      (effects (font (size 1.27 1.27)))
    )
    (property "Value" "Choke_Coilcraft_0603USB-222" (id 1) (at 0 -4.445 0)
      (effects (font (size 1.27 1.27)))
    )
    (property "Footprint" "Inductor_SMD:L_CommonModeChoke_Coilcraft_0603USB" (id 2) (at 0 -6.35 0)
      (effects (font (size 1.27 1.27)) hide)
    )
    (property "Datasheet" "https://www.coilcraft.com/pdfs/0603usb.pdf" (id 3) (at 0 -8.255 0)
      (effects (font (size 1.27 1.27)) hide)
    )
    (property "ki_keywords" "common-mode common mode choke signal line filter" (id 4) (at 0 0 0)
      (effects (font (size 1.27 1.27)) hide)
    )
    (property "ki_description" "Common mode choke, 500mA, 250VAC, 150nH, 209mohm, 0.96Ghz, " (id 5) (at 0 0 0)
      (effects (font (size 1.27 1.27)) hide)
    )
    (property "ki_fp_filters" "L*CommonModeChoke*Coilcraft*0603USB*" (id 6) (at 0 0 0)
      (effects (font (size 1.27 1.27)) hide)
    )
  )
  (symbol "Choke_Coilcraft_0603USB-601" (extends "Choke_Coilcraft_0603USB-251")
    (property "Reference" "FL" (id 0) (at 0 4.445 0)
      (effects (font (size 1.27 1.27)))
    )
    (property "Value" "Choke_Coilcraft_0603USB-601" (id 1) (at 0 -4.445 0)
      (effects (font (size 1.27 1.27)))
    )
    (property "Footprint" "Inductor_SMD:L_CommonModeChoke_Coilcraft_0603USB" (id 2) (at 0 -6.35 0)
      (effects (font (size 1.27 1.27)) hide)
    )
    (property "Datasheet" "https://www.coilcraft.com/pdfs/0603usb.pdf" (id 3) (at 0 -8.255 0)
      (effects (font (size 1.27 1.27)) hide)
    )
    (property "ki_keywords" "common-mode common mode choke signal line filter" (id 4) (at 0 0 0)
      (effects (font (size 1.27 1.27)) hide)
    )
    (property "ki_description" "Common mode choke, 500mA, 250VAC, 37nH, 109mohm, 3.4Ghz," (id 5) (at 0 0 0)
      (effects (font (size 1.27 1.27)) hide)
    )
    (property "ki_fp_filters" "L*CommonModeChoke*Coilcraft*0603USB*" (id 6) (at 0 0 0)
      (effects (font (size 1.27 1.27)) hide)
    )
  )
  (symbol "Choke_Coilcraft_0603USB-951" (extends "Choke_Coilcraft_0603USB-251")
    (property "Reference" "FL" (id 0) (at 0 4.445 0)
      (effects (font (size 1.27 1.27)))
    )
    (property "Value" "Choke_Coilcraft_0603USB-951" (id 1) (at 0 -4.445 0)
      (effects (font (size 1.27 1.27)))
    )
    (property "Footprint" "Inductor_SMD:L_CommonModeChoke_Coilcraft_0603USB" (id 2) (at 0 -6.35 0)
      (effects (font (size 1.27 1.27)) hide)
    )
    (property "Datasheet" "https://www.coilcraft.com/pdfs/0603usb.pdf" (id 3) (at 0 -8.255 0)
      (effects (font (size 1.27 1.27)) hide)
    )
    (property "ki_keywords" "common-mode common mode choke signal line filter" (id 4) (at 0 0 0)
      (effects (font (size 1.27 1.27)) hide)
    )
    (property "ki_description" "Common mode choke, 500mA, 250VAC, 63nH, 142mohm, 2.8Ghz, " (id 5) (at 0 0 0)
      (effects (font (size 1.27 1.27)) hide)
    )
    (property "ki_fp_filters" "L*CommonModeChoke*Coilcraft*0603USB*" (id 6) (at 0 0 0)
      (effects (font (size 1.27 1.27)) hide)
    )
  )
  (symbol "Choke_Schaffner_RN102-0.3-02-22M" (pin_names hide) (in_bom yes) (on_board yes)
    (property "Reference" "FL" (at 0 5.08 0)
      (effects (font (size 1.27 1.27)))
    )
    (property "Value" "Choke_Schaffner_RN102-0.3-02-22M" (at 0 -5.08 0)
      (effects (font (size 1.27 1.27)))
    )
    (property "Footprint" "Inductor_THT:Choke_Schaffner_RN102-04-14.0x14.0mm" (at 0 0 0)
      (effects (font (size 1.27 1.27)) hide)
    )
    (property "Datasheet" "https://www.schaffner.com/products/download/product/datasheet/rn-series-common-mode-chokes-new/" (at 0 0 0)
      (effects (font (size 1.27 1.27)) hide)
    )
    (property "ki_keywords" "common-mode common mode choke powerline power line filter" (at 0 0 0)
      (effects (font (size 1.27 1.27)) hide)
    )
    (property "ki_description" "Common mode choke, 300mA, 300VAC, 22mH, 1.3 ohm, RN-102" (at 0 0 0)
      (effects (font (size 1.27 1.27)) hide)
    )
    (property "ki_fp_filters" "Choke*Schaffner*RN102*" (at 0 0 0)
      (effects (font (size 1.27 1.27)) hide)
    )
    (symbol "Choke_Schaffner_RN102-0.3-02-22M_1_1"
      (circle (center -3.048 -1.27) (radius 0.254)
        (stroke (width 0) (type default))
        (fill (type outline))
      )
      (circle (center -3.048 1.524) (radius 0.254)
        (stroke (width 0) (type default))
        (fill (type outline))
      )
      (arc (start -2.54 2.032) (mid -2.032 1.5262) (end -1.524 2.032)
        (stroke (width 0) (type default))
        (fill (type none))
      )
      (arc (start -1.524 -2.032) (mid -2.032 -1.5262) (end -2.54 -2.032)
        (stroke (width 0) (type default))
        (fill (type none))
      )
      (arc (start -1.524 2.032) (mid -1.016 1.5262) (end -0.508 2.032)
        (stroke (width 0) (type default))
        (fill (type none))
      )
      (arc (start -0.508 -2.032) (mid -1.016 -1.5262) (end -1.524 -2.032)
        (stroke (width 0) (type default))
        (fill (type none))
      )
      (arc (start -0.508 2.032) (mid 0 1.5262) (end 0.508 2.032)
        (stroke (width 0) (type default))
        (fill (type none))
      )
      (polyline
        (pts
          (xy -2.54 -2.032)
          (xy -2.54 -2.54)
        )
        (stroke (width 0) (type default))
        (fill (type none))
      )
      (polyline
        (pts
          (xy -2.54 0.508)
          (xy 2.54 0.508)
        )
        (stroke (width 0) (type default))
        (fill (type none))
      )
      (polyline
        (pts
          (xy -2.54 2.032)
          (xy -2.54 2.54)
        )
        (stroke (width 0) (type default))
        (fill (type none))
      )
      (polyline
        (pts
          (xy 2.54 -2.032)
          (xy 2.54 -2.54)
        )
        (stroke (width 0) (type default))
        (fill (type none))
      )
      (polyline
        (pts
          (xy 2.54 -0.508)
          (xy -2.54 -0.508)
        )
        (stroke (width 0) (type default))
        (fill (type none))
      )
      (polyline
        (pts
          (xy 2.54 2.54)
          (xy 2.54 2.032)
        )
        (stroke (width 0) (type default))
        (fill (type none))
      )
      (arc (start 0.508 -2.032) (mid 0 -1.5262) (end -0.508 -2.032)
        (stroke (width 0) (type default))
        (fill (type none))
      )
      (arc (start 0.508 2.032) (mid 1.016 1.5262) (end 1.524 2.032)
        (stroke (width 0) (type default))
        (fill (type none))
      )
      (arc (start 1.524 -2.032) (mid 1.016 -1.5262) (end 0.508 -2.032)
        (stroke (width 0) (type default))
        (fill (type none))
      )
      (arc (start 1.524 2.032) (mid 2.032 1.5262) (end 2.54 2.032)
        (stroke (width 0) (type default))
        (fill (type none))
      )
      (arc (start 2.54 -2.032) (mid 2.032 -1.5262) (end 1.524 -2.032)
        (stroke (width 0) (type default))
        (fill (type none))
      )
      (pin passive line (at -5.08 2.54 0) (length 2.54)
        (name "1" (effects (font (size 1.27 1.27))))
        (number "1" (effects (font (size 1.27 1.27))))
      )
      (pin passive line (at 5.08 2.54 180) (length 2.54)
        (name "2" (effects (font (size 1.27 1.27))))
        (number "2" (effects (font (size 1.27 1.27))))
      )
      (pin passive line (at -5.08 -2.54 0) (length 2.54)
        (name "3" (effects (font (size 1.27 1.27))))
        (number "3" (effects (font (size 1.27 1.27))))
      )
      (pin passive line (at 5.08 -2.54 180) (length 2.54)
        (name "4" (effects (font (size 1.27 1.27))))
        (number "4" (effects (font (size 1.27 1.27))))
      )
    )
  )
  (symbol "Choke_Schaffner_RN102-0.3-02-12M" (extends "Choke_Schaffner_RN102-0.3-02-22M")
    (property "Reference" "FL" (at 0 5.08 0)
      (effects (font (size 1.27 1.27)))
    )
    (property "Value" "Choke_Schaffner_RN102-0.3-02-12M" (at 0 -5.08 0)
      (effects (font (size 1.27 1.27)))
    )
    (property "Footprint" "Inductor_THT:Choke_Schaffner_RN102-04-14.0x14.0mm" (at 0 0 0)
      (effects (font (size 1.27 1.27)) hide)
    )
    (property "Datasheet" "https://www.schaffner.com/products/download/product/datasheet/rn-series-common-mode-chokes-new/" (at 0 0 0)
      (effects (font (size 1.27 1.27)) hide)
    )
    (property "ki_keywords" "common-mode common mode choke powerline power line filter" (at 0 0 0)
      (effects (font (size 1.27 1.27)) hide)
    )
    (property "ki_description" "Common mode choke, 300mA, 300VAC, 12mH, 1.1 ohm, RN-102" (at 0 0 0)
      (effects (font (size 1.27 1.27)) hide)
    )
    (property "ki_fp_filters" "Choke*Schaffner*RN102*" (at 0 0 0)
      (effects (font (size 1.27 1.27)) hide)
    )
  )
  (symbol "Choke_Schaffner_RN102-0.6-02-4M4" (extends "Choke_Schaffner_RN102-0.3-02-22M")
    (property "Reference" "FL" (at 0 5.08 0)
      (effects (font (size 1.27 1.27)))
    )
    (property "Value" "Choke_Schaffner_RN102-0.6-02-4M4" (at 0 -5.08 0)
      (effects (font (size 1.27 1.27)))
    )
    (property "Footprint" "Inductor_THT:Choke_Schaffner_RN102-04-14.0x14.0mm" (at 0 0 0)
      (effects (font (size 1.27 1.27)) hide)
    )
    (property "Datasheet" "https://www.schaffner.com/products/download/product/datasheet/rn-series-common-mode-chokes-new/" (at 0 0 0)
      (effects (font (size 1.27 1.27)) hide)
    )
    (property "ki_keywords" "common-mode common mode choke powerline power line filter" (at 0 0 0)
      (effects (font (size 1.27 1.27)) hide)
    )
    (property "ki_description" "Common mode choke, 600mA, 300VAC, 4.4mH, 380mohm, RN-102" (at 0 0 0)
      (effects (font (size 1.27 1.27)) hide)
    )
    (property "ki_fp_filters" "Choke*Schaffner*RN102*" (at 0 0 0)
      (effects (font (size 1.27 1.27)) hide)
    )
  )
  (symbol "Choke_Schaffner_RN102-1-02-3M0" (extends "Choke_Schaffner_RN102-0.3-02-22M")
    (property "Reference" "FL" (at 0 5.08 0)
      (effects (font (size 1.27 1.27)))
    )
    (property "Value" "Choke_Schaffner_RN102-1-02-3M0" (at 0 -5.08 0)
      (effects (font (size 1.27 1.27)))
    )
    (property "Footprint" "Inductor_THT:Choke_Schaffner_RN102-04-14.0x14.0mm" (at 0 0 0)
      (effects (font (size 1.27 1.27)) hide)
    )
    (property "Datasheet" "https://www.schaffner.com/products/download/product/datasheet/rn-series-common-mode-chokes-new/" (at 0 0 0)
      (effects (font (size 1.27 1.27)) hide)
    )
    (property "ki_keywords" "common-mode common mode choke powerline power line filter" (at 0 0 0)
      (effects (font (size 1.27 1.27)) hide)
    )
    (property "ki_description" "Common mode choke, 1A, 300VAC, 3mH, 210mohm, RN-102" (at 0 0 0)
      (effects (font (size 1.27 1.27)) hide)
    )
    (property "ki_fp_filters" "Choke*Schaffner*RN102*" (at 0 0 0)
      (effects (font (size 1.27 1.27)) hide)
    )
  )
  (symbol "Choke_Schaffner_RN102-1.5-02-1M6" (extends "Choke_Schaffner_RN102-0.3-02-22M")
    (property "Reference" "FL" (at 0 5.08 0)
      (effects (font (size 1.27 1.27)))
    )
    (property "Value" "Choke_Schaffner_RN102-1.5-02-1M6" (at 0 -5.08 0)
      (effects (font (size 1.27 1.27)))
    )
    (property "Footprint" "Inductor_THT:Choke_Schaffner_RN102-04-14.0x14.0mm" (at 0 0 0)
      (effects (font (size 1.27 1.27)) hide)
    )
    (property "Datasheet" "https://www.schaffner.com/products/download/product/datasheet/rn-series-common-mode-chokes-new/" (at 0 0 0)
      (effects (font (size 1.27 1.27)) hide)
    )
    (property "ki_keywords" "common-mode common mode choke powerline power line filter" (at 0 0 0)
      (effects (font (size 1.27 1.27)) hide)
    )
    (property "ki_description" "Common mode choke, 1.5A, 300VAC, 1.6mH, 94mohm, RN-102" (at 0 0 0)
      (effects (font (size 1.27 1.27)) hide)
    )
    (property "ki_fp_filters" "Choke*Schaffner*RN102*" (at 0 0 0)
      (effects (font (size 1.27 1.27)) hide)
    )
  )
  (symbol "Choke_Schaffner_RN102-2-02-1M1" (extends "Choke_Schaffner_RN102-0.3-02-22M")
    (property "Reference" "FL" (at 0 5.08 0)
      (effects (font (size 1.27 1.27)))
    )
    (property "Value" "Choke_Schaffner_RN102-2-02-1M1" (at 0 -5.08 0)
      (effects (font (size 1.27 1.27)))
    )
    (property "Footprint" "Inductor_THT:Choke_Schaffner_RN102-04-14.0x14.0mm" (at 0 0 0)
      (effects (font (size 1.27 1.27)) hide)
    )
    (property "Datasheet" "https://www.schaffner.com/products/download/product/datasheet/rn-series-common-mode-chokes-new/" (at 0 0 0)
      (effects (font (size 1.27 1.27)) hide)
    )
    (property "ki_keywords" "common-mode common mode choke powerline power line filter" (at 0 0 0)
      (effects (font (size 1.27 1.27)) hide)
    )
    (property "ki_description" "Common mode choke, 2A, 300VAC, 1.1mH, 70mohm, RN-102" (at 0 0 0)
      (effects (font (size 1.27 1.27)) hide)
    )
    (property "ki_fp_filters" "Choke*Schaffner*RN102*" (at 0 0 0)
      (effects (font (size 1.27 1.27)) hide)
    )
  )
  (symbol "FN405-0.5-02" (in_bom yes) (on_board yes)
    (property "Reference" "FL" (at 0 7.62 0)
      (effects (font (size 1.27 1.27)))
    )
    (property "Value" "FN405-0.5-02" (at 0 5.08 0)
      (effects (font (size 1.27 1.27)))
    )
    (property "Footprint" "Filter:Filter_Schaffner_FN405" (at 2.54 0 0)
      (effects (font (size 1.27 1.27)) hide)
    )
    (property "Datasheet" "https://www.schaffner.com/de/produkte/download/product/datasheet/fn-405-pcb-mounting-filter/" (at 2.54 0 0)
      (effects (font (size 1.27 1.27)) hide)
    )
    (property "ki_keywords" "EMI" (at 0 0 0)
      (effects (font (size 1.27 1.27)) hide)
    )
    (property "ki_description" "0.5A, 250VAC, 50/60Hz line filter" (at 0 0 0)
      (effects (font (size 1.27 1.27)) hide)
    )
    (property "ki_fp_filters" "Filter*Schaffner*FN405*" (at 0 0 0)
      (effects (font (size 1.27 1.27)) hide)
    )
    (symbol "FN405-0.5-02_0_1"
      (rectangle (start -7.62 3.81) (end 7.62 -3.81)
        (stroke (width 0.254) (type default))
        (fill (type background))
      )
      (rectangle (start -4.826 -0.254) (end -2.794 -0.508)
        (stroke (width 0) (type default))
        (fill (type outline))
      )
      (rectangle (start -4.826 0.254) (end -2.794 0.508)
        (stroke (width 0) (type default))
        (fill (type outline))
      )
      (arc (start -0.762 -2.54) (mid -1.143 -2.1606) (end -1.524 -2.54)
        (stroke (width 0) (type default))
        (fill (type none))
      )
      (arc (start -0.762 2.54) (mid -1.143 2.9194) (end -1.524 2.54)
        (stroke (width 0) (type default))
        (fill (type none))
      )
      (arc (start 0 -2.54) (mid -0.381 -2.1606) (end -0.762 -2.54)
        (stroke (width 0) (type default))
        (fill (type none))
      )
      (polyline
        (pts
          (xy -3.81 -0.508)
          (xy -3.81 -2.54)
        )
        (stroke (width 0) (type default))
        (fill (type none))
      )
      (polyline
        (pts
          (xy -3.81 0.508)
          (xy -3.81 2.54)
        )
        (stroke (width 0) (type default))
        (fill (type none))
      )
      (polyline
        (pts
          (xy -1.524 -2.54)
          (xy -5.588 -2.54)
        )
        (stroke (width 0) (type default))
        (fill (type none))
      )
      (polyline
        (pts
          (xy -1.524 2.54)
          (xy -5.588 2.54)
        )
        (stroke (width 0) (type default))
        (fill (type none))
      )
      (polyline
        (pts
          (xy 1.524 -2.54)
          (xy 5.08 -2.54)
        )
        (stroke (width 0) (type default))
        (fill (type none))
      )
      (polyline
        (pts
          (xy 3.81 -1.778)
          (xy 3.81 -2.54)
        )
        (stroke (width 0) (type default))
        (fill (type none))
      )
      (polyline
        (pts
          (xy 3.81 0)
          (xy 5.842 0)
        )
        (stroke (width 0) (type default))
        (fill (type none))
      )
      (polyline
        (pts
          (xy 3.81 0.762)
          (xy 3.81 -0.762)
        )
        (stroke (width 0) (type default))
        (fill (type none))
      )
      (polyline
        (pts
          (xy 3.81 1.778)
          (xy 3.81 2.54)
        )
        (stroke (width 0) (type default))
        (fill (type none))
      )
      (polyline
        (pts
          (xy 5.08 2.54)
          (xy 1.524 2.54)
        )
        (stroke (width 0) (type default))
        (fill (type none))
      )
      (circle (center 0 0) (radius 1.8034)
        (stroke (width 0) (type default))
        (fill (type none))
      )
      (arc (start 0 2.54) (mid -0.381 2.9194) (end -0.762 2.54)
        (stroke (width 0) (type default))
        (fill (type none))
      )
      (arc (start 0.762 -2.54) (mid 0.381 -2.1606) (end 0 -2.54)
        (stroke (width 0) (type default))
        (fill (type none))
      )
      (arc (start 0.762 2.54) (mid 0.381 2.9194) (end 0 2.54)
        (stroke (width 0) (type default))
        (fill (type none))
      )
      (arc (start 1.524 -2.54) (mid 1.143 -2.1606) (end 0.762 -2.54)
        (stroke (width 0) (type default))
        (fill (type none))
      )
      (arc (start 1.524 2.54) (mid 1.143 2.9194) (end 0.762 2.54)
        (stroke (width 0) (type default))
        (fill (type none))
      )
      (rectangle (start 2.794 -1.524) (end 4.826 -1.778)
        (stroke (width 0) (type default))
        (fill (type outline))
      )
      (rectangle (start 2.794 -1.016) (end 4.826 -0.762)
        (stroke (width 0) (type default))
        (fill (type outline))
      )
      (rectangle (start 2.794 1.016) (end 4.826 0.762)
        (stroke (width 0) (type default))
        (fill (type outline))
      )
      (rectangle (start 2.794 1.524) (end 4.826 1.778)
        (stroke (width 0) (type default))
        (fill (type outline))
      )
    )
    (symbol "FN405-0.5-02_1_1"
      (pin passive line (at -10.16 -2.54 0) (length 2.54)
        (name "N" (effects (font (size 1.27 1.27))))
        (number "1" (effects (font (size 1.27 1.27))))
      )
      (pin passive line (at 10.16 -2.54 180) (length 2.54)
        (name "N'" (effects (font (size 1.27 1.27))))
        (number "2" (effects (font (size 1.27 1.27))))
      )
      (pin passive line (at 10.16 0 180) (length 2.54)
        (name "E" (effects (font (size 1.27 1.27))))
        (number "3" (effects (font (size 1.27 1.27))))
      )
      (pin passive line (at 10.16 2.54 180) (length 2.54)
        (name "P'" (effects (font (size 1.27 1.27))))
        (number "4" (effects (font (size 1.27 1.27))))
      )
      (pin passive line (at -10.16 2.54 0) (length 2.54)
        (name "P" (effects (font (size 1.27 1.27))))
        (number "5" (effects (font (size 1.27 1.27))))
      )
    )
  )
  (symbol "FN405-1-02" (extends "FN405-0.5-02")
    (property "Reference" "FL" (at 0 7.62 0)
      (effects (font (size 1.27 1.27)))
    )
    (property "Value" "FN405-1-02" (at 0 5.08 0)
      (effects (font (size 1.27 1.27)))
    )
    (property "Footprint" "Filter:Filter_Schaffner_FN405" (at 2.54 0 0)
      (effects (font (size 1.27 1.27)) hide)
    )
    (property "Datasheet" "https://www.schaffner.com/de/produkte/download/product/datasheet/fn-405-pcb-mounting-filter/" (at 2.54 0 0)
      (effects (font (size 1.27 1.27)) hide)
    )
    (property "ki_keywords" "EMI" (at 0 0 0)
      (effects (font (size 1.27 1.27)) hide)
    )
    (property "ki_description" "1A, 250VAC, 50/60Hz line filter" (at 0 0 0)
      (effects (font (size 1.27 1.27)) hide)
    )
    (property "ki_fp_filters" "Filter*Schaffner*FN405*" (at 0 0 0)
      (effects (font (size 1.27 1.27)) hide)
    )
  )
  (symbol "FN405-10-02" (extends "FN405-0.5-02")
    (property "Reference" "FL" (at 0 7.62 0)
      (effects (font (size 1.27 1.27)))
    )
    (property "Value" "FN405-10-02" (at 0 5.08 0)
      (effects (font (size 1.27 1.27)))
    )
    (property "Footprint" "Filter:Filter_Schaffner_FN405" (at 2.54 0 0)
      (effects (font (size 1.27 1.27)) hide)
    )
    (property "Datasheet" "https://www.schaffner.com/de/produkte/download/product/datasheet/fn-405-pcb-mounting-filter/" (at 2.54 0 0)
      (effects (font (size 1.27 1.27)) hide)
    )
    (property "ki_keywords" "EMI" (at 0 0 0)
      (effects (font (size 1.27 1.27)) hide)
    )
    (property "ki_description" "10A, 250VAC, 50/60Hz line filter" (at 0 0 0)
      (effects (font (size 1.27 1.27)) hide)
    )
    (property "ki_fp_filters" "Filter*Schaffner*FN405*" (at 0 0 0)
      (effects (font (size 1.27 1.27)) hide)
    )
  )
  (symbol "FN405-3-02" (extends "FN405-0.5-02")
    (property "Reference" "FL" (at 0 7.62 0)
      (effects (font (size 1.27 1.27)))
    )
    (property "Value" "FN405-3-02" (at 0 5.08 0)
      (effects (font (size 1.27 1.27)))
    )
    (property "Footprint" "Filter:Filter_Schaffner_FN405" (at 2.54 0 0)
      (effects (font (size 1.27 1.27)) hide)
    )
    (property "Datasheet" "https://www.schaffner.com/de/produkte/download/product/datasheet/fn-405-pcb-mounting-filter/" (at 2.54 0 0)
      (effects (font (size 1.27 1.27)) hide)
    )
    (property "ki_keywords" "EMI" (at 0 0 0)
      (effects (font (size 1.27 1.27)) hide)
    )
    (property "ki_description" "3A, 250VAC, 50/60Hz line filter" (at 0 0 0)
      (effects (font (size 1.27 1.27)) hide)
    )
    (property "ki_fp_filters" "Filter*Schaffner*FN405*" (at 0 0 0)
      (effects (font (size 1.27 1.27)) hide)
    )
  )
  (symbol "FN405-6-02" (extends "FN405-0.5-02")
    (property "Reference" "FL" (at 0 7.62 0)
      (effects (font (size 1.27 1.27)))
    )
    (property "Value" "FN405-6-02" (at 0 5.08 0)
      (effects (font (size 1.27 1.27)))
    )
    (property "Footprint" "Filter:Filter_Schaffner_FN405" (at 2.54 0 0)
      (effects (font (size 1.27 1.27)) hide)
    )
    (property "Datasheet" "https://www.schaffner.com/de/produkte/download/product/datasheet/fn-405-pcb-mounting-filter/" (at 2.54 0 0)
      (effects (font (size 1.27 1.27)) hide)
    )
    (property "ki_keywords" "EMI" (at 0 0 0)
      (effects (font (size 1.27 1.27)) hide)
    )
    (property "ki_description" "6A, 250VAC, 50/60Hz line filter" (at 0 0 0)
      (effects (font (size 1.27 1.27)) hide)
    )
    (property "ki_fp_filters" "Filter*Schaffner*FN405*" (at 0 0 0)
      (effects (font (size 1.27 1.27)) hide)
    )
  )
  (symbol "FN406-0.5-02" (in_bom yes) (on_board yes)
    (property "Reference" "FL" (at 0 7.62 0)
      (effects (font (size 1.27 1.27)))
    )
    (property "Value" "FN406-0.5-02" (at 0 5.08 0)
      (effects (font (size 1.27 1.27)))
    )
    (property "Footprint" "Filter:Filter_Schaffner_FN406" (at 0 0 0)
      (effects (font (size 1.27 1.27)) hide)
    )
    (property "Datasheet" "https://www.schaffner.com/products/download/product/datasheet/fn-406-ultra-compact-emc-filter/" (at 0 0 0)
      (effects (font (size 1.27 1.27)) hide)
    )
    (property "ki_keywords" "EMI mains" (at 0 0 0)
      (effects (font (size 1.27 1.27)) hide)
    )
    (property "ki_description" "0.5A ultra compact EMI Filter" (at 0 0 0)
      (effects (font (size 1.27 1.27)) hide)
    )
    (property "ki_fp_filters" "Filter*Schaffner*FN406*" (at 0 0 0)
      (effects (font (size 1.27 1.27)) hide)
    )
    (symbol "FN406-0.5-02_0_1"
      (rectangle (start -5.08 3.81) (end 5.08 -3.81)
        (stroke (width 0.254) (type default))
        (fill (type background))
      )
    )
    (symbol "FN406-0.5-02_1_1"
      (pin passive line (at -7.62 2.54 0) (length 2.54)
        (name "P" (effects (font (size 1.27 1.27))))
        (number "1" (effects (font (size 1.27 1.27))))
      )
      (pin passive line (at -7.62 -2.54 0) (length 2.54)
        (name "N" (effects (font (size 1.27 1.27))))
        (number "2" (effects (font (size 1.27 1.27))))
      )
      (pin passive line (at -7.62 0 0) (length 2.54)
        (name "PE" (effects (font (size 1.27 1.27))))
        (number "3" (effects (font (size 1.27 1.27))))
      )
      (pin passive line (at 7.62 -2.54 180) (length 2.54)
        (name "N'" (effects (font (size 1.27 1.27))))
        (number "4" (effects (font (size 1.27 1.27))))
      )
      (pin passive line (at 7.62 2.54 180) (length 2.54)
        (name "P'" (effects (font (size 1.27 1.27))))
        (number "5" (effects (font (size 1.27 1.27))))
      )
    )
  )
  (symbol "FN406-1-02" (extends "FN406-0.5-02")
    (property "Reference" "FL" (at 0 7.62 0)
      (effects (font (size 1.27 1.27)))
    )
    (property "Value" "FN406-1-02" (at 0 5.08 0)
      (effects (font (size 1.27 1.27)))
    )
    (property "Footprint" "Filter:Filter_Schaffner_FN406" (at 0 0 0)
      (effects (font (size 1.27 1.27)) hide)
    )
    (property "Datasheet" "https://www.schaffner.com/products/download/product/datasheet/fn-406-ultra-compact-emc-filter/" (at 0 0 0)
      (effects (font (size 1.27 1.27)) hide)
    )
    (property "ki_keywords" "EMI mains" (at 0 0 0)
      (effects (font (size 1.27 1.27)) hide)
    )
    (property "ki_description" "1A ultra compact EMI Filter" (at 0 0 0)
      (effects (font (size 1.27 1.27)) hide)
    )
    (property "ki_fp_filters" "Filter*Schaffner*FN406*" (at 0 0 0)
      (effects (font (size 1.27 1.27)) hide)
    )
  )
  (symbol "FN406-3-02" (extends "FN406-0.5-02")
    (property "Reference" "FL" (at 0 7.62 0)
      (effects (font (size 1.27 1.27)))
    )
    (property "Value" "FN406-3-02" (at 0 5.08 0)
      (effects (font (size 1.27 1.27)))
    )
    (property "Footprint" "Filter:Filter_Schaffner_FN406" (at 0 0 0)
      (effects (font (size 1.27 1.27)) hide)
    )
    (property "Datasheet" "https://www.schaffner.com/products/download/product/datasheet/fn-406-ultra-compact-emc-filter/" (at 0 0 0)
      (effects (font (size 1.27 1.27)) hide)
    )
    (property "ki_keywords" "EMI mains" (at 0 0 0)
      (effects (font (size 1.27 1.27)) hide)
    )
    (property "ki_description" "3A ultra compact EMI Filter" (at 0 0 0)
      (effects (font (size 1.27 1.27)) hide)
    )
    (property "ki_fp_filters" "Filter*Schaffner*FN406*" (at 0 0 0)
      (effects (font (size 1.27 1.27)) hide)
    )
  )
  (symbol "FN406-6-02" (extends "FN406-0.5-02")
    (property "Reference" "FL" (at 0 7.62 0)
      (effects (font (size 1.27 1.27)))
    )
    (property "Value" "FN406-6-02" (at 0 5.08 0)
      (effects (font (size 1.27 1.27)))
    )
    (property "Footprint" "Filter:Filter_Schaffner_FN406" (at 0 0 0)
      (effects (font (size 1.27 1.27)) hide)
    )
    (property "Datasheet" "https://www.schaffner.com/products/download/product/datasheet/fn-406-ultra-compact-emc-filter/" (at 0 0 0)
      (effects (font (size 1.27 1.27)) hide)
    )
    (property "ki_keywords" "EMI mains" (at 0 0 0)
      (effects (font (size 1.27 1.27)) hide)
    )
    (property "ki_description" "6A ultra compact EMI Filter" (at 0 0 0)
      (effects (font (size 1.27 1.27)) hide)
    )
    (property "ki_fp_filters" "Filter*Schaffner*FN406*" (at 0 0 0)
      (effects (font (size 1.27 1.27)) hide)
    )
  )
  (symbol "FN406-8.4-02" (extends "FN406-0.5-02")
    (property "Reference" "FL" (at 0 7.62 0)
      (effects (font (size 1.27 1.27)))
    )
    (property "Value" "FN406-8.4-02" (at 0 5.08 0)
      (effects (font (size 1.27 1.27)))
    )
    (property "Footprint" "Filter:Filter_Schaffner_FN406" (at 0 0 0)
      (effects (font (size 1.27 1.27)) hide)
    )
    (property "Datasheet" "https://www.schaffner.com/products/download/product/datasheet/fn-406-ultra-compact-emc-filter/" (at 0 0 0)
      (effects (font (size 1.27 1.27)) hide)
    )
    (property "ki_keywords" "EMI mains" (at 0 0 0)
      (effects (font (size 1.27 1.27)) hide)
    )
    (property "ki_description" "8.4A ultra compact EMI Filter" (at 0 0 0)
      (effects (font (size 1.27 1.27)) hide)
    )
    (property "ki_fp_filters" "Filter*Schaffner*FN406*" (at 0 0 0)
      (effects (font (size 1.27 1.27)) hide)
    )
  )
  (symbol "FN406B-0.5-02" (extends "FN406-0.5-02")
    (property "Reference" "FL" (at 0 7.62 0)
      (effects (font (size 1.27 1.27)))
    )
    (property "Value" "FN406B-0.5-02" (at 0 5.08 0)
      (effects (font (size 1.27 1.27)))
    )
    (property "Footprint" "Filter:Filter_Schaffner_FN406" (at 0 0 0)
      (effects (font (size 1.27 1.27)) hide)
    )
    (property "Datasheet" "https://www.schaffner.com/products/download/product/datasheet/fn-406-ultra-compact-emc-filter/" (at 0 0 0)
      (effects (font (size 1.27 1.27)) hide)
    )
    (property "ki_keywords" "EMI mains" (at 0 0 0)
      (effects (font (size 1.27 1.27)) hide)
    )
    (property "ki_description" "0.5A ultra compact EMI Filter, medical version" (at 0 0 0)
      (effects (font (size 1.27 1.27)) hide)
    )
    (property "ki_fp_filters" "Filter*Schaffner*FN406*" (at 0 0 0)
      (effects (font (size 1.27 1.27)) hide)
    )
  )
  (symbol "FN406B-1-02" (extends "FN406-0.5-02")
    (property "Reference" "FL" (at 0 7.62 0)
      (effects (font (size 1.27 1.27)))
    )
    (property "Value" "FN406B-1-02" (at 0 5.08 0)
      (effects (font (size 1.27 1.27)))
    )
    (property "Footprint" "Filter:Filter_Schaffner_FN406" (at 0 0 0)
      (effects (font (size 1.27 1.27)) hide)
    )
    (property "Datasheet" "https://www.schaffner.com/products/download/product/datasheet/fn-406-ultra-compact-emc-filter/" (at 0 0 0)
      (effects (font (size 1.27 1.27)) hide)
    )
    (property "ki_keywords" "EMI mains" (at 0 0 0)
      (effects (font (size 1.27 1.27)) hide)
    )
    (property "ki_description" "1A ultra compact EMI Filter, medical version" (at 0 0 0)
      (effects (font (size 1.27 1.27)) hide)
    )
    (property "ki_fp_filters" "Filter*Schaffner*FN406*" (at 0 0 0)
      (effects (font (size 1.27 1.27)) hide)
    )
  )
  (symbol "FN406B-3-02" (extends "FN406-0.5-02")
    (property "Reference" "FL" (at 0 7.62 0)
      (effects (font (size 1.27 1.27)))
    )
    (property "Value" "FN406B-3-02" (at 0 5.08 0)
      (effects (font (size 1.27 1.27)))
    )
    (property "Footprint" "Filter:Filter_Schaffner_FN406" (at 0 0 0)
      (effects (font (size 1.27 1.27)) hide)
    )
    (property "Datasheet" "https://www.schaffner.com/products/download/product/datasheet/fn-406-ultra-compact-emc-filter/" (at 0 0 0)
      (effects (font (size 1.27 1.27)) hide)
    )
    (property "ki_keywords" "EMI mains" (at 0 0 0)
      (effects (font (size 1.27 1.27)) hide)
    )
    (property "ki_description" "3A ultra compact EMI Filter, medical version" (at 0 0 0)
      (effects (font (size 1.27 1.27)) hide)
    )
    (property "ki_fp_filters" "Filter*Schaffner*FN406*" (at 0 0 0)
      (effects (font (size 1.27 1.27)) hide)
    )
  )
  (symbol "FN406B-6-02" (extends "FN406-0.5-02")
    (property "Reference" "FL" (at 0 7.62 0)
      (effects (font (size 1.27 1.27)))
    )
    (property "Value" "FN406B-6-02" (at 0 5.08 0)
      (effects (font (size 1.27 1.27)))
    )
    (property "Footprint" "Filter:Filter_Schaffner_FN406" (at 0 0 0)
      (effects (font (size 1.27 1.27)) hide)
    )
    (property "Datasheet" "https://www.schaffner.com/products/download/product/datasheet/fn-406-ultra-compact-emc-filter/" (at 0 0 0)
      (effects (font (size 1.27 1.27)) hide)
    )
    (property "ki_keywords" "EMI mains" (at 0 0 0)
      (effects (font (size 1.27 1.27)) hide)
    )
    (property "ki_description" "6A ultra compact EMI Filter, medical version" (at 0 0 0)
      (effects (font (size 1.27 1.27)) hide)
    )
    (property "ki_fp_filters" "Filter*Schaffner*FN406*" (at 0 0 0)
      (effects (font (size 1.27 1.27)) hide)
    )
  )
  (symbol "FN406B-8.4-02" (extends "FN406-0.5-02")
    (property "Reference" "FL" (at 0 7.62 0)
      (effects (font (size 1.27 1.27)))
    )
    (property "Value" "FN406B-8.4-02" (at 0 5.08 0)
      (effects (font (size 1.27 1.27)))
    )
    (property "Footprint" "Filter:Filter_Schaffner_FN406" (at 0 0 0)
      (effects (font (size 1.27 1.27)) hide)
    )
    (property "Datasheet" "https://www.schaffner.com/products/download/product/datasheet/fn-406-ultra-compact-emc-filter/" (at 0 0 0)
      (effects (font (size 1.27 1.27)) hide)
    )
    (property "ki_keywords" "EMI mains" (at 0 0 0)
      (effects (font (size 1.27 1.27)) hide)
    )
    (property "ki_description" "8.4A ultra compact EMI Filter, medical version" (at 0 0 0)
      (effects (font (size 1.27 1.27)) hide)
    )
    (property "ki_fp_filters" "Filter*Schaffner*FN406*" (at 0 0 0)
      (effects (font (size 1.27 1.27)) hide)
    )
  )
  (symbol "LTC1562xxG" (in_bom yes) (on_board yes)
    (property "Reference" "U" (at -7.62 17.78 0)
      (effects (font (size 1.27 1.27)))
    )
    (property "Value" "LTC1562xxG" (at 7.62 17.78 0)
      (effects (font (size 1.27 1.27)))
    )
    (property "Footprint" "Package_SO:SSOP-20_5.3x7.2mm_P0.65mm" (at 0 -27.94 0)
      (effects (font (size 1.27 1.27)) hide)
    )
    (property "Datasheet" "https://www.analog.com/media/en/technical-documentation/data-sheets/1562fa.pdf" (at 5.08 -20.32 0)
      (effects (font (size 1.27 1.27)) hide)
    )
    (property "ki_keywords" "filter opamp quad" (at 0 0 0)
      (effects (font (size 1.27 1.27)) hide)
    )
    (property "ki_description" "Active RC Quad Universal Filter, 10kHz to 150kHz, Low Noise, Low Distortion, SSOP-20" (at 0 0 0)
      (effects (font (size 1.27 1.27)) hide)
    )
    (property "ki_fp_filters" "SSOP*5.3x7.2mm*P0.65mm*" (at 0 0 0)
      (effects (font (size 1.27 1.27)) hide)
    )
    (symbol "LTC1562xxG_0_1"
      (rectangle (start -7.62 15.24) (end 7.62 -15.24)
        (stroke (width 0.254) (type default))
        (fill (type background))
      )
    )
    (symbol "LTC1562xxG_1_1"
      (pin input line (at -10.16 7.62 0) (length 2.54)
        (name "INV_B" (effects (font (size 1.27 1.27))))
        (number "1" (effects (font (size 1.27 1.27))))
      )
      (pin input line (at -10.16 -7.62 0) (length 2.54)
        (name "INV_A" (effects (font (size 1.27 1.27))))
        (number "10" (effects (font (size 1.27 1.27))))
      )
      (pin input line (at 10.16 -7.62 180) (length 2.54)
        (name "INV_D" (effects (font (size 1.27 1.27))))
        (number "11" (effects (font (size 1.27 1.27))))
      )
      (pin output line (at 10.16 -5.08 180) (length 2.54)
        (name "V1_D" (effects (font (size 1.27 1.27))))
        (number "12" (effects (font (size 1.27 1.27))))
      )
      (pin output line (at 10.16 -2.54 180) (length 2.54)
        (name "V2_D" (effects (font (size 1.27 1.27))))
        (number "13" (effects (font (size 1.27 1.27))))
      )
      (pin passive line (at 0 -17.78 90) (length 2.54) hide
        (name "V-" (effects (font (size 1.27 1.27))))
        (number "14" (effects (font (size 1.27 1.27))))
      )
      (pin power_in line (at 2.54 -17.78 90) (length 2.54)
        (name "AGND" (effects (font (size 1.27 1.27))))
        (number "15" (effects (font (size 1.27 1.27))))
      )
      (pin power_in line (at 0 -17.78 90) (length 2.54)
        (name "V-" (effects (font (size 1.27 1.27))))
        (number "16" (effects (font (size 1.27 1.27))))
      )
      (pin passive line (at 0 -17.78 90) (length 2.54) hide
        (name "V-" (effects (font (size 1.27 1.27))))
        (number "17" (effects (font (size 1.27 1.27))))
      )
      (pin output line (at 10.16 2.54 180) (length 2.54)
        (name "V2_C" (effects (font (size 1.27 1.27))))
        (number "18" (effects (font (size 1.27 1.27))))
      )
      (pin output line (at 10.16 5.08 180) (length 2.54)
        (name "V1_C" (effects (font (size 1.27 1.27))))
        (number "19" (effects (font (size 1.27 1.27))))
      )
      (pin output line (at -10.16 5.08 0) (length 2.54)
        (name "V1_B" (effects (font (size 1.27 1.27))))
        (number "2" (effects (font (size 1.27 1.27))))
      )
      (pin input line (at 10.16 7.62 180) (length 2.54)
        (name "INV_C" (effects (font (size 1.27 1.27))))
        (number "20" (effects (font (size 1.27 1.27))))
      )
      (pin output line (at -10.16 2.54 0) (length 2.54)
        (name "V2_B" (effects (font (size 1.27 1.27))))
        (number "3" (effects (font (size 1.27 1.27))))
      )
      (pin passive line (at 0 -17.78 90) (length 2.54) hide
        (name "V-" (effects (font (size 1.27 1.27))))
        (number "4" (effects (font (size 1.27 1.27))))
      )
      (pin power_in line (at 0 17.78 270) (length 2.54)
        (name "V+" (effects (font (size 1.27 1.27))))
        (number "5" (effects (font (size 1.27 1.27))))
      )
      (pin input line (at -10.16 -12.7 0) (length 2.54)
        (name "SHDN" (effects (font (size 1.27 1.27))))
        (number "6" (effects (font (size 1.27 1.27))))
      )
      (pin passive line (at 0 -17.78 90) (length 2.54) hide
        (name "V-" (effects (font (size 1.27 1.27))))
        (number "7" (effects (font (size 1.27 1.27))))
      )
      (pin output line (at -10.16 -2.54 0) (length 2.54)
        (name "V2_A" (effects (font (size 1.27 1.27))))
        (number "8" (effects (font (size 1.27 1.27))))
      )
      (pin output line (at -10.16 -5.08 0) (length 2.54)
        (name "V1_A" (effects (font (size 1.27 1.27))))
        (number "9" (effects (font (size 1.27 1.27))))
      )
    )
  )
  (symbol "LTC1562xG-2" (extends "LTC1562xxG")
    (property "Reference" "U" (at -7.62 17.78 0)
      (effects (font (size 1.27 1.27)))
    )
    (property "Value" "LTC1562xG-2" (at 7.62 17.78 0)
      (effects (font (size 1.27 1.27)))
    )
    (property "Footprint" "Package_SO:SSOP-20_5.3x7.2mm_P0.65mm" (at 0 -27.94 0)
      (effects (font (size 1.27 1.27)) hide)
    )
    (property "Datasheet" "https://www.analog.com/media/en/technical-documentation/data-sheets/15622fa.pdf" (at 5.08 -20.32 0)
      (effects (font (size 1.27 1.27)) hide)
    )
    (property "ki_keywords" "filter opamp quad" (at 0 0 0)
      (effects (font (size 1.27 1.27)) hide)
    )
    (property "ki_description" "Active RC Quad Universal Filter, 20kHz to 300kHz, Low Noise, Low Distortion, SSOP-20" (at 0 0 0)
      (effects (font (size 1.27 1.27)) hide)
    )
    (property "ki_fp_filters" "SSOP*5.3x7.2mm*P0.65mm*" (at 0 0 0)
      (effects (font (size 1.27 1.27)) hide)
    )
  )
  (symbol "SF14-1575F5UUA1" (pin_names (offset 1.016)) (in_bom yes) (on_board yes)
    (property "Reference" "FL" (at 2.54 -6.35 0)
      (effects (font (size 1.27 1.27)))
    )
    (property "Value" "SF14-1575F5UUA1" (at 0 6.35 0)
      (effects (font (size 1.27 1.27)))
    )
    (property "Footprint" "Filter:Filter_1411-5_1.4x1.1mm" (at 0 0 0)
      (effects (font (size 1.27 1.27)) hide)
    )
    (property "Datasheet" "https://global.kyocera.com/prdct/electro/product/pdf/sf14_gnss.pdf" (at 0 0 0)
      (effects (font (size 1.27 1.27)) hide)
    )
    (property "ki_keywords" "SAW filter" (at 0 0 0)
      (effects (font (size 1.27 1.27)) hide)
    )
    (property "ki_description" "1575MHz SAW filter, SMD 1411" (at 0 0 0)
      (effects (font (size 1.27 1.27)) hide)
    )
    (property "ki_fp_filters" "Filter*1411*1.4x1.1mm*" (at 0 0 0)
      (effects (font (size 1.27 1.27)) hide)
    )
    (symbol "SF14-1575F5UUA1_0_1"
      (rectangle (start -5.08 5.08) (end 5.08 -5.08)
        (stroke (width 0.254) (type default))
        (fill (type background))
      )
      (arc (start -0.762 1.524) (mid -0.1988 2.0511) (end 0 2.794)
        (stroke (width 0) (type default))
        (fill (type none))
      )
      (polyline
        (pts
          (xy -1.524 -0.762)
          (xy -1.27 -0.762)
        )
        (stroke (width 0) (type default))
        (fill (type none))
      )
      (polyline
        (pts
          (xy 1.524 -1.27)
          (xy -1.524 -1.27)
        )
        (stroke (width 0) (type default))
        (fill (type none))
      )
      (polyline
        (pts
          (xy 1.524 -0.762)
          (xy -1.27 -0.762)
        )
        (stroke (width 0) (type default))
        (fill (type none))
      )
      (polyline
        (pts
          (xy -1.524 -1.27)
          (xy -2.032 -1.27)
          (xy -2.032 0)
          (xy 2.286 0)
        )
        (stroke (width 0) (type default))
        (fill (type none))
      )
      (polyline
        (pts
          (xy 1.524 -0.762)
          (xy 2.032 -0.762)
          (xy 2.032 -2.032)
          (xy -2.286 -2.032)
        )
        (stroke (width 0) (type default))
        (fill (type none))
      )
      (arc (start 0 2.794) (mid 0.2065 2.0558) (end 0.762 1.524)
        (stroke (width 0) (type default))
        (fill (type none))
      )
    )
    (symbol "SF14-1575F5UUA1_1_1"
      (pin passive line (at -7.62 2.54 0) (length 2.54)
        (name "~" (effects (font (size 1.27 1.27))))
        (number "1" (effects (font (size 1.27 1.27))))
      )
      (pin passive line (at -7.62 -2.54 0) (length 2.54)
        (name "~" (effects (font (size 1.27 1.27))))
        (number "2" (effects (font (size 1.27 1.27))))
      )
      (pin passive line (at 7.62 -2.54 180) (length 2.54)
        (name "~" (effects (font (size 1.27 1.27))))
        (number "3" (effects (font (size 1.27 1.27))))
      )
      (pin passive line (at 7.62 2.54 180) (length 2.54)
        (name "~" (effects (font (size 1.27 1.27))))
        (number "4" (effects (font (size 1.27 1.27))))
      )
      (pin passive line (at -7.62 -2.54 0) (length 2.54) hide
        (name "~" (effects (font (size 1.27 1.27))))
        (number "5" (effects (font (size 1.27 1.27))))
      )
    )
  )
  (symbol "SAFFA1G58KA0F0A" (extends "SF14-1575F5UUA1")
    (property "Reference" "FL" (at 2.54 -6.35 0)
      (effects (font (size 1.27 1.27)))
    )
    (property "Value" "SAFFA1G58KA0F0A" (at 0 6.35 0)
      (effects (font (size 1.27 1.27)))
    )
    (property "Footprint" "Filter:Filter_1411-5_1.4x1.1mm" (at 0 0 0)
      (effects (font (size 1.27 1.27)) hide)
    )
    (property "Datasheet" "https://www.murata.com/~/media/webrenewal/support/library/catalog/products/filter/rf/p73e.ashx?la=en" (at 0 0 0)
      (effects (font (size 1.27 1.27)) hide)
    )
    (property "ki_keywords" "SAW filter" (at 0 0 0)
      (effects (font (size 1.27 1.27)) hide)
    )
    (property "ki_description" "Murata 1575.42/1602MHz SAW filter, SMD 1411" (at 0 0 0)
      (effects (font (size 1.27 1.27)) hide)
    )
    (property "ki_fp_filters" "Filter*1411*1.4x1.1mm*" (at 0 0 0)
      (effects (font (size 1.27 1.27)) hide)
    )
  )
  (symbol "SAFFA1G96FN0F0A" (extends "SF14-1575F5UUA1")
    (property "Reference" "FL" (at 2.54 -6.35 0)
      (effects (font (size 1.27 1.27)))
    )
    (property "Value" "SAFFA1G96FN0F0A" (at 0 6.35 0)
      (effects (font (size 1.27 1.27)))
    )
    (property "Footprint" "Filter:Filter_1411-5_1.4x1.1mm" (at 0 0 0)
      (effects (font (size 1.27 1.27)) hide)
    )
    (property "Datasheet" "https://www.murata.com/~/media/webrenewal/support/library/catalog/products/filter/rf/p73e.ashx?la=en" (at 0 0 0)
      (effects (font (size 1.27 1.27)) hide)
    )
    (property "ki_keywords" "SAW filter" (at 0 0 0)
      (effects (font (size 1.27 1.27)) hide)
    )
    (property "ki_description" "Murata 1960MHz SAW filter, SMD 1411" (at 0 0 0)
      (effects (font (size 1.27 1.27)) hide)
    )
    (property "ki_fp_filters" "Filter*1411*1.4x1.1mm*" (at 0 0 0)
      (effects (font (size 1.27 1.27)) hide)
    )
  )
  (symbol "SAFFA2G14FA0F0A" (extends "SF14-1575F5UUA1")
    (property "Reference" "FL" (at 2.54 -6.35 0)
      (effects (font (size 1.27 1.27)))
    )
    (property "Value" "SAFFA2G14FA0F0A" (at 0 6.35 0)
      (effects (font (size 1.27 1.27)))
    )
    (property "Footprint" "Filter:Filter_1411-5_1.4x1.1mm" (at 0 0 0)
      (effects (font (size 1.27 1.27)) hide)
    )
    (property "Datasheet" "https://www.murata.com/~/media/webrenewal/support/library/catalog/products/filter/rf/p73e.ashx?la=en" (at 0 0 0)
      (effects (font (size 1.27 1.27)) hide)
    )
    (property "ki_keywords" "SAW filter" (at 0 0 0)
      (effects (font (size 1.27 1.27)) hide)
    )
    (property "ki_description" "Murata 2140MHz SAW filter, SMD 1411" (at 0 0 0)
      (effects (font (size 1.27 1.27)) hide)
    )
    (property "ki_fp_filters" "Filter*1411*1.4x1.1mm*" (at 0 0 0)
      (effects (font (size 1.27 1.27)) hide)
    )
  )
  (symbol "SAFFA881MFL0F0A" (extends "SF14-1575F5UUA1")
    (property "Reference" "FL" (at 2.54 -6.35 0)
      (effects (font (size 1.27 1.27)))
    )
    (property "Value" "SAFFA881MFL0F0A" (at 0 6.35 0)
      (effects (font (size 1.27 1.27)))
    )
    (property "Footprint" "Filter:Filter_1411-5_1.4x1.1mm" (at 0 0 0)
      (effects (font (size 1.27 1.27)) hide)
    )
    (property "Datasheet" "https://www.murata.com/~/media/webrenewal/support/library/catalog/products/filter/rf/p73e.ashx?la=en" (at 0 0 0)
      (effects (font (size 1.27 1.27)) hide)
    )
    (property "ki_keywords" "SAW filter" (at 0 0 0)
      (effects (font (size 1.27 1.27)) hide)
    )
    (property "ki_description" "Murata 881.5MHz SAW filter, SMD 1411" (at 0 0 0)
      (effects (font (size 1.27 1.27)) hide)
    )
    (property "ki_fp_filters" "Filter*1411*1.4x1.1mm*" (at 0 0 0)
      (effects (font (size 1.27 1.27)) hide)
    )
  )
  (symbol "SAFFA942MFM0F0A" (extends "SF14-1575F5UUA1")
    (property "Reference" "FL" (at 2.54 -6.35 0)
      (effects (font (size 1.27 1.27)))
    )
    (property "Value" "SAFFA942MFM0F0A" (at 0 6.35 0)
      (effects (font (size 1.27 1.27)))
    )
    (property "Footprint" "Filter:Filter_1411-5_1.4x1.1mm" (at 0 0 0)
      (effects (font (size 1.27 1.27)) hide)
    )
    (property "Datasheet" "https://www.murata.com/~/media/webrenewal/support/library/catalog/products/filter/rf/p73e.ashx?la=en" (at 0 0 0)
      (effects (font (size 1.27 1.27)) hide)
    )
    (property "ki_keywords" "SAW filter" (at 0 0 0)
      (effects (font (size 1.27 1.27)) hide)
    )
    (property "ki_description" "Murata 942.5MHz SAW filter, SMD 1411" (at 0 0 0)
      (effects (font (size 1.27 1.27)) hide)
    )
    (property "ki_fp_filters" "Filter*1411*1.4x1.1mm*" (at 0 0 0)
      (effects (font (size 1.27 1.27)) hide)
    )
  )
  (symbol "SF14-1575F5UUC1" (extends "SF14-1575F5UUA1")
    (property "Reference" "FL" (at 2.54 -6.35 0)
      (effects (font (size 1.27 1.27)))
    )
    (property "Value" "SF14-1575F5UUC1" (at 0 6.35 0)
      (effects (font (size 1.27 1.27)))
    )
    (property "Footprint" "Filter:Filter_1411-5_1.4x1.1mm" (at 0 0 0)
      (effects (font (size 1.27 1.27)) hide)
    )
    (property "Datasheet" "https://global.kyocera.com/prdct/electro/product/pdf/sf14_gnss.pdf" (at 0 0 0)
      (effects (font (size 1.27 1.27)) hide)
    )
    (property "ki_keywords" "SAW filter" (at 0 0 0)
      (effects (font (size 1.27 1.27)) hide)
    )
    (property "ki_description" "1575MHz SAW filter, SMD 1411" (at 0 0 0)
      (effects (font (size 1.27 1.27)) hide)
    )
    (property "ki_fp_filters" "Filter*1411*1.4x1.1mm*" (at 0 0 0)
      (effects (font (size 1.27 1.27)) hide)
    )
  )
)
